31.0 	33.0 	31.0 	34.0 	31.0 	34.0 	31.0 	33.0 	38.0 	38.0 	34.0 	38.0 	35.0 	39.0 	38.0 	38.0 	32.0 	33.0 	32.0 	34.0 	33.0 	33.0 	30.0 	33.0 	34.0 	37.0 	34.0 	37.0 	34.0 	37.0 	34.0 	37.0 
29.0 	30.0 	29.0 	31.0 	29.0 	31.0 	28.0 	30.0 	35.0 	35.0 	32.0 	36.0 	32.0 	36.0 	36.0 	36.0 	29.0 	30.0 	30.0 	31.0 	30.0 	30.0 	28.0 	31.0 	31.0 	34.0 	31.0 	34.0 	31.0 	34.0 	31.0 	35.0 
26.0 	28.0 	26.0 	28.0 	26.0 	28.0 	26.0 	28.0 	33.0 	33.0 	29.0 	33.0 	29.0 	33.0 	33.0 	33.0 	26.0 	28.0 	27.0 	29.0 	28.0 	28.0 	25.0 	28.0 	28.0 	31.0 	29.0 	31.0 	28.0 	31.0 	28.0 	32.0 
23.0 	25.0 	24.0 	25.0 	23.0 	26.0 	23.0 	25.0 	30.0 	30.0 	27.0 	30.0 	27.0 	30.0 	30.0 	30.0 	24.0 	25.0 	24.0 	26.0 	25.0 	25.0 	22.0 	25.0 	26.0 	28.0 	26.0 	28.0 	26.0 	28.0 	26.0 	29.0 
21.0 	22.0 	21.0 	23.0 	22.0 	23.0 	21.0 	22.0 	27.0 	27.0 	25.0 	28.0 	25.0 	28.0 	28.0 	28.0 	21.0 	23.0 	22.0 	24.0 	23.0 	23.0 	20.0 	22.0 	23.0 	26.0 	23.0 	25.0 	23.0 	25.0 	23.0 	26.0 
19.0 	20.0 	19.0 	21.0 	19.0 	21.0 	19.0 	20.0 	25.0 	24.0 	22.0 	25.0 	23.0 	25.0 	25.0 	25.0 	19.0 	20.0 	20.0 	21.0 	21.0 	21.0 	18.0 	20.0 	21.0 	23.0 	21.0 	23.0 	21.0 	23.0 	21.0 	24.0 
16.0 	17.0 	17.0 	18.0 	16.0 	18.0 	16.0 	17.0 	20.0 	20.0 	19.0 	22.0 	19.0 	22.0 	21.0 	21.0 	16.0 	17.0 	17.0 	18.0 	18.0 	17.0 	15.0 	17.0 	18.0 	20.0 	18.0 	20.0 	18.0 	20.0 	18.0 	21.0 
17.0 	18.0 	17.0 	19.0 	17.0 	18.0 	16.0 	18.0 	20.0 	20.0 	19.0 	22.0 	20.0 	21.0 	21.0 	21.0 	17.0 	18.0 	18.0 	19.0 	18.0 	18.0 	16.0 	18.0 	18.0 	21.0 	19.0 	20.0 	18.0 	20.0 	18.0 	21.0 
18.0 	19.0 	18.0 	20.0 	19.0 	20.0 	18.0 	19.0 	21.0 	21.0 	20.0 	22.0 	20.0 	23.0 	21.0 	22.0 	18.0 	19.0 	19.0 	20.0 	19.0 	19.0 	17.0 	19.0 	20.0 	22.0 	20.0 	22.0 	20.0 	22.0 	20.0 	23.0 
15.0 	18.0 	17.0 	18.0 	16.0 	18.0 	16.0 	17.0 	19.0 	18.0 	17.0 	20.0 	17.0 	20.0 	19.0 	19.0 	16.0 	17.0 	17.0 	18.0 	17.0 	17.0 	15.0 	17.0 	18.0 	20.0 	17.0 	19.0 	18.0 	19.0 	17.0 	20.0 
11.0 	13.0 	12.0 	13.0 	12.0 	13.0 	13.0 	13.0 	14.0 	13.0 	12.0 	15.0 	12.0 	15.0 	14.0 	15.0 	11.0 	12.0 	12.0 	13.0 	12.0 	12.0 	10.0 	12.0 	13.0 	14.0 	13.0 	14.0 	13.0 	14.0 	12.0 	15.0 
15.0 	19.0 	16.0 	18.0 	17.0 	18.0 	17.0 	18.0 	19.0 	19.0 	17.0 	20.0 	17.0 	21.0 	20.0 	20.0 	16.0 	17.0 	17.0 	17.0 	17.0 	17.0 	15.0 	17.0 	18.0 	20.0 	18.0 	19.0 	17.0 	19.0 	17.0 	20.0 
18.0 	21.0 	19.0 	20.0 	19.0 	21.0 	20.0 	20.0 	23.0 	23.0 	21.0 	24.0 	21.0 	24.0 	23.0 	23.0 	19.0 	20.0 	19.0 	21.0 	20.0 	20.0 	18.0 	20.0 	21.0 	23.0 	21.0 	22.0 	20.0 	23.0 	20.0 	23.0 
20.0 	23.0 	21.0 	22.0 	21.0 	23.0 	21.0 	22.0 	25.0 	25.0 	22.0 	26.0 	23.0 	26.0 	25.0 	26.0 	21.0 	21.0 	21.0 	23.0 	22.0 	22.0 	19.0 	21.0 	22.0 	25.0 	23.0 	24.0 	22.0 	25.0 	22.0 	26.0 
22.0 	25.0 	23.0 	25.0 	23.0 	25.0 	23.0 	24.0 	27.0 	27.0 	25.0 	28.0 	25.0 	29.0 	28.0 	28.0 	23.0 	24.0 	24.0 	25.0 	24.0 	24.0 	21.0 	24.0 	25.0 	27.0 	25.0 	27.0 	24.0 	27.0 	25.0 	28.0 
25.0 	27.0 	25.0 	27.0 	25.0 	27.0 	25.0 	27.0 	30.0 	30.0 	27.0 	31.0 	28.0 	32.0 	31.0 	31.0 	25.0 	26.0 	26.0 	28.0 	26.0 	27.0 	24.0 	26.0 	27.0 	30.0 	27.0 	29.0 	27.0 	30.0 	27.0 	31.0 
27.0 	29.0 	27.0 	29.0 	27.0 	30.0 	27.0 	28.0 	33.0 	33.0 	29.0 	33.0 	30.0 	34.0 	33.0 	33.0 	27.0 	28.0 	28.0 	30.0 	28.0 	29.0 	26.0 	28.0 	30.0 	33.0 	29.0 	32.0 	29.0 	32.0 	29.0 	33.0 
28.0 	31.0 	29.0 	31.0 	29.0 	31.0 	29.0 	30.0 	34.0 	35.0 	31.0 	35.0 	31.0 	36.0 	35.0 	35.0 	29.0 	30.0 	30.0 	31.0 	30.0 	31.0 	28.0 	30.0 	31.0 	34.0 	31.0 	34.0 	30.0 	34.0 	31.0 	35.0 
29.0 	32.0 	29.0 	32.0 	30.0 	32.0 	30.0 	31.0 	36.0 	36.0 	33.0 	36.0 	33.0 	37.0 	36.0 	37.0 	30.0 	31.0 	31.0 	32.0 	31.0 	31.0 	28.0 	31.0 	32.0 	35.0 	32.0 	35.0 	32.0 	35.0 	32.0 	36.0 
30.0 	32.0 	30.0 	33.0 	30.0 	33.0 	30.0 	32.0 	36.0 	37.0 	33.0 	37.0 	33.0 	37.0 	37.0 	37.0 	31.0 	32.0 	31.0 	33.0 	32.0 	32.0 	29.0 	32.0 	33.0 	36.0 	33.0 	35.0 	33.0 	36.0 	33.0 	36.0 
32.0 	33.0 	31.0 	34.0 	32.0 	34.0 	31.0 	33.0 	38.0 	39.0 	35.0 	38.0 	36.0 	39.0 	38.0 	39.0 	33.0 	34.0 	33.0 	35.0 	34.0 	34.0 	32.0 	34.0 	35.0 	37.0 	34.0 	37.0 	34.0 	38.0 	34.0 	38.0 
29.0 	31.0 	29.0 	32.0 	30.0 	32.0 	29.0 	31.0 	36.0 	37.0 	33.0 	36.0 	34.0 	37.0 	36.0 	36.0 	31.0 	32.0 	31.0 	33.0 	32.0 	32.0 	30.0 	32.0 	32.0 	35.0 	32.0 	35.0 	32.0 	35.0 	32.0 	36.0 
27.0 	29.0 	27.0 	30.0 	27.0 	30.0 	27.0 	29.0 	34.0 	34.0 	31.0 	34.0 	31.0 	34.0 	34.0 	34.0 	28.0 	29.0 	29.0 	30.0 	29.0 	29.0 	27.0 	30.0 	30.0 	33.0 	30.0 	33.0 	29.0 	33.0 	30.0 	33.0 
25.0 	26.0 	25.0 	27.0 	25.0 	27.0 	24.0 	26.0 	32.0 	32.0 	28.0 	31.0 	29.0 	31.0 	32.0 	32.0 	26.0 	27.0 	27.0 	28.0 	27.0 	27.0 	25.0 	27.0 	28.0 	30.0 	27.0 	30.0 	27.0 	30.0 	27.0 	30.0 
23.0 	24.0 	23.0 	25.0 	23.0 	25.0 	22.0 	24.0 	30.0 	29.0 	27.0 	29.0 	27.0 	29.0 	30.0 	30.0 	24.0 	25.0 	24.0 	26.0 	25.0 	25.0 	23.0 	25.0 	25.0 	27.0 	25.0 	28.0 	25.0 	28.0 	25.0 	28.0 
21.0 	22.0 	21.0 	23.0 	21.0 	23.0 	20.0 	22.0 	27.0 	27.0 	25.0 	27.0 	25.0 	27.0 	27.0 	27.0 	22.0 	23.0 	22.0 	24.0 	23.0 	23.0 	21.0 	23.0 	23.0 	25.0 	23.0 	25.0 	23.0 	25.0 	23.0 	26.0 
20.0 	20.0 	20.0 	22.0 	20.0 	21.0 	19.0 	20.0 	24.0 	24.0 	23.0 	25.0 	24.0 	25.0 	24.0 	25.0 	20.0 	21.0 	21.0 	22.0 	22.0 	21.0 	20.0 	21.0 	22.0 	23.0 	22.0 	24.0 	21.0 	24.0 	22.0 	24.0 
22.0 	23.0 	22.0 	24.0 	22.0 	24.0 	21.0 	23.0 	26.0 	26.0 	25.0 	26.0 	25.0 	27.0 	26.0 	27.0 	23.0 	23.0 	23.0 	24.0 	24.0 	23.0 	22.0 	24.0 	24.0 	26.0 	24.0 	26.0 	24.0 	26.0 	24.0 	27.0 
20.0 	21.0 	20.0 	22.0 	20.0 	22.0 	19.0 	21.0 	23.0 	23.0 	22.0 	24.0 	23.0 	24.0 	24.0 	24.0 	21.0 	21.0 	21.0 	22.0 	22.0 	21.0 	20.0 	22.0 	22.0 	24.0 	22.0 	24.0 	22.0 	24.0 	22.0 	25.0 
20.0 	22.0 	20.0 	22.0 	21.0 	22.0 	20.0 	22.0 	24.0 	23.0 	22.0 	24.0 	23.0 	24.0 	23.0 	24.0 	21.0 	22.0 	22.0 	22.0 	22.0 	22.0 	20.0 	22.0 	23.0 	24.0 	22.0 	24.0 	22.0 	24.0 	22.0 	25.0 
16.0 	19.0 	17.0 	19.0 	17.0 	19.0 	18.0 	18.0 	20.0 	20.0 	18.0 	20.0 	19.0 	21.0 	20.0 	20.0 	18.0 	18.0 	18.0 	19.0 	18.0 	18.0 	17.0 	19.0 	19.0 	20.0 	19.0 	20.0 	18.0 	21.0 	18.0 	20.0 
20.0 	23.0 	21.0 	23.0 	21.0 	23.0 	22.0 	22.0 	24.0 	25.0 	22.0 	25.0 	23.0 	25.0 	24.0 	25.0 	22.0 	22.0 	22.0 	23.0 	22.0 	22.0 	21.0 	22.0 	23.0 	24.0 	22.0 	24.0 	22.0 	25.0 	22.0 	25.0 
22.0 	25.0 	23.0 	25.0 	23.0 	25.0 	24.0 	24.0 	27.0 	27.0 	25.0 	27.0 	25.0 	28.0 	27.0 	28.0 	24.0 	24.0 	24.0 	25.0 	25.0 	24.0 	23.0 	25.0 	25.0 	27.0 	25.0 	27.0 	24.0 	28.0 	25.0 	27.0 
23.0 	26.0 	24.0 	26.0 	24.0 	26.0 	25.0 	25.0 	29.0 	29.0 	26.0 	29.0 	27.0 	29.0 	29.0 	29.0 	25.0 	26.0 	25.0 	26.0 	26.0 	26.0 	24.0 	26.0 	27.0 	28.0 	26.0 	29.0 	26.0 	29.0 	26.0 	29.0 
25.0 	27.0 	25.0 	27.0 	26.0 	28.0 	26.0 	27.0 	31.0 	31.0 	28.0 	31.0 	29.0 	31.0 	31.0 	31.0 	27.0 	27.0 	27.0 	28.0 	27.0 	27.0 	26.0 	28.0 	29.0 	30.0 	28.0 	30.0 	27.0 	30.0 	28.0 	31.0 
27.0 	29.0 	27.0 	29.0 	28.0 	29.0 	27.0 	29.0 	33.0 	33.0 	30.0 	33.0 	31.0 	33.0 	33.0 	33.0 	28.0 	29.0 	29.0 	30.0 	29.0 	29.0 	27.0 	30.0 	30.0 	32.0 	30.0 	33.0 	29.0 	32.0 	30.0 	33.0 
28.0 	30.0 	28.0 	31.0 	29.0 	31.0 	28.0 	30.0 	34.0 	35.0 	31.0 	35.0 	32.0 	35.0 	35.0 	35.0 	30.0 	30.0 	30.0 	31.0 	30.0 	30.0 	29.0 	31.0 	32.0 	34.0 	31.0 	34.0 	31.0 	34.0 	31.0 	34.0 
29.0 	32.0 	29.0 	32.0 	30.0 	32.0 	30.0 	31.0 	36.0 	36.0 	33.0 	36.0 	33.0 	36.0 	36.0 	36.0 	31.0 	31.0 	31.0 	33.0 	32.0 	32.0 	30.0 	32.0 	33.0 	35.0 	33.0 	35.0 	32.0 	35.0 	33.0 	36.0 
30.0 	32.0 	30.0 	33.0 	30.0 	33.0 	30.0 	32.0 	37.0 	37.0 	34.0 	37.0 	34.0 	37.0 	37.0 	37.0 	32.0 	32.0 	32.0 	34.0 	32.0 	33.0 	31.0 	33.0 	34.0 	36.0 	33.0 	36.0 	33.0 	36.0 	33.0 	37.0 
30.0 	33.0 	31.0 	33.0 	31.0 	34.0 	31.0 	32.0 	38.0 	37.0 	34.0 	37.0 	35.0 	38.0 	37.0 	38.0 	32.0 	33.0 	33.0 	34.0 	33.0 	33.0 	31.0 	34.0 	34.0 	36.0 	34.0 	37.0 	33.0 	37.0 	34.0 	37.0 
32.0 	33.0 	32.0 	35.0 	32.0 	34.0 	32.0 	34.0 	39.0 	39.0 	35.0 	39.0 	36.0 	39.0 	39.0 	39.0 	33.0 	34.0 	33.0 	35.0 	34.0 	34.0 	32.0 	35.0 	34.0 	37.0 	35.0 	38.0 	34.0 	38.0 	35.0 	38.0 
31.0 	32.0 	30.0 	33.0 	30.0 	33.0 	30.0 	32.0 	38.0 	38.0 	34.0 	37.0 	35.0 	38.0 	38.0 	37.0 	31.0 	33.0 	31.0 	33.0 	32.0 	33.0 	31.0 	33.0 	33.0 	36.0 	33.0 	36.0 	32.0 	36.0 	34.0 	36.0 
29.0 	30.0 	29.0 	32.0 	29.0 	31.0 	28.0 	30.0 	36.0 	36.0 	32.0 	35.0 	33.0 	35.0 	36.0 	35.0 	29.0 	31.0 	29.0 	31.0 	30.0 	31.0 	29.0 	32.0 	31.0 	34.0 	32.0 	34.0 	31.0 	34.0 	32.0 	35.0 
27.0 	28.0 	27.0 	30.0 	26.0 	29.0 	26.0 	28.0 	34.0 	34.0 	30.0 	33.0 	31.0 	33.0 	34.0 	33.0 	27.0 	29.0 	27.0 	29.0 	28.0 	29.0 	27.0 	29.0 	29.0 	31.0 	30.0 	32.0 	29.0 	31.0 	29.0 	32.0 
26.0 	26.0 	25.0 	28.0 	25.0 	27.0 	25.0 	26.0 	32.0 	32.0 	29.0 	31.0 	29.0 	31.0 	32.0 	32.0 	25.0 	27.0 	25.0 	27.0 	27.0 	27.0 	25.0 	28.0 	27.0 	29.0 	28.0 	30.0 	27.0 	30.0 	28.0 	30.0 
24.0 	24.0 	23.0 	26.0 	23.0 	25.0 	23.0 	25.0 	29.0 	30.0 	27.0 	29.0 	27.0 	30.0 	29.0 	30.0 	24.0 	25.0 	24.0 	25.0 	25.0 	25.0 	24.0 	26.0 	25.0 	27.0 	26.0 	28.0 	25.0 	27.0 	26.0 	28.0 
23.0 	23.0 	22.0 	25.0 	22.0 	23.0 	21.0 	24.0 	27.0 	27.0 	25.0 	27.0 	26.0 	28.0 	27.0 	28.0 	22.0 	24.0 	22.0 	24.0 	23.0 	23.0 	22.0 	24.0 	24.0 	26.0 	25.0 	27.0 	24.0 	26.0 	25.0 	27.0 
25.0 	26.0 	25.0 	28.0 	25.0 	27.0 	24.0 	27.0 	30.0 	30.0 	28.0 	30.0 	28.0 	30.0 	29.0 	30.0 	25.0 	27.0 	24.0 	26.0 	25.0 	26.0 	25.0 	27.0 	27.0 	29.0 	28.0 	30.0 	26.0 	29.0 	28.0 	30.0 
23.0 	24.0 	23.0 	25.0 	22.0 	24.0 	22.0 	24.0 	26.0 	27.0 	25.0 	27.0 	25.0 	27.0 	26.0 	27.0 	23.0 	24.0 	22.0 	24.0 	22.0 	24.0 	22.0 	24.0 	24.0 	26.0 	25.0 	27.0 	24.0 	27.0 	25.0 	27.0 
24.0 	25.0 	24.0 	26.0 	24.0 	26.0 	24.0 	26.0 	28.0 	28.0 	26.0 	28.0 	26.0 	28.0 	28.0 	28.0 	24.0 	26.0 	23.0 	25.0 	24.0 	25.0 	24.0 	26.0 	26.0 	28.0 	27.0 	29.0 	25.0 	28.0 	26.0 	29.0 
22.0 	24.0 	22.0 	24.0 	22.0 	23.0 	22.0 	24.0 	25.0 	25.0 	23.0 	25.0 	24.0 	26.0 	25.0 	25.0 	22.0 	23.0 	21.0 	23.0 	22.0 	23.0 	22.0 	24.0 	24.0 	25.0 	24.0 	26.0 	23.0 	25.0 	24.0 	26.0 
24.0 	27.0 	25.0 	27.0 	25.0 	27.0 	25.0 	27.0 	28.0 	29.0 	26.0 	29.0 	27.0 	29.0 	28.0 	29.0 	25.0 	26.0 	25.0 	26.0 	25.0 	26.0 	24.0 	26.0 	26.0 	28.0 	26.0 	29.0 	26.0 	29.0 	26.0 	29.0 
26.0 	28.0 	26.0 	28.0 	26.0 	28.0 	27.0 	27.0 	30.0 	30.0 	28.0 	30.0 	28.0 	31.0 	30.0 	30.0 	26.0 	27.0 	26.0 	28.0 	26.0 	27.0 	25.0 	28.0 	27.0 	30.0 	28.0 	30.0 	27.0 	30.0 	28.0 	30.0 
27.0 	29.0 	27.0 	29.0 	27.0 	29.0 	28.0 	29.0 	32.0 	32.0 	29.0 	32.0 	30.0 	33.0 	32.0 	32.0 	27.0 	29.0 	27.0 	29.0 	28.0 	28.0 	27.0 	29.0 	29.0 	31.0 	29.0 	32.0 	28.0 	31.0 	29.0 	32.0 
28.0 	30.0 	28.0 	31.0 	28.0 	30.0 	28.0 	30.0 	33.0 	34.0 	31.0 	33.0 	31.0 	34.0 	34.0 	34.0 	29.0 	30.0 	28.0 	30.0 	29.0 	30.0 	28.0 	30.0 	30.0 	33.0 	31.0 	33.0 	30.0 	33.0 	31.0 	34.0 
29.0 	31.0 	29.0 	32.0 	29.0 	32.0 	29.0 	31.0 	35.0 	36.0 	32.0 	35.0 	33.0 	36.0 	35.0 	35.0 	30.0 	31.0 	30.0 	32.0 	30.0 	31.0 	29.0 	32.0 	31.0 	34.0 	32.0 	35.0 	31.0 	34.0 	32.0 	35.0 
31.0 	32.0 	31.0 	34.0 	31.0 	33.0 	31.0 	33.0 	37.0 	37.0 	34.0 	37.0 	34.0 	37.0 	37.0 	37.0 	32.0 	33.0 	31.0 	33.0 	32.0 	33.0 	31.0 	34.0 	33.0 	36.0 	34.0 	37.0 	33.0 	36.0 	34.0 	37.0 
32.0 	33.0 	31.0 	34.0 	31.0 	34.0 	31.0 	33.0 	38.0 	38.0 	34.0 	37.0 	35.0 	38.0 	38.0 	38.0 	32.0 	34.0 	32.0 	34.0 	33.0 	34.0 	31.0 	34.0 	34.0 	36.0 	34.0 	37.0 	33.0 	37.0 	34.0 	37.0 
32.0 	33.0 	31.0 	35.0 	32.0 	34.0 	31.0 	33.0 	38.0 	38.0 	35.0 	38.0 	35.0 	39.0 	38.0 	38.0 	32.0 	34.0 	32.0 	34.0 	33.0 	34.0 	31.0 	35.0 	34.0 	37.0 	35.0 	37.0 	33.0 	37.0 	35.0 	38.0 
32.0 	34.0 	32.0 	35.0 	32.0 	34.0 	32.0 	34.0 	38.0 	39.0 	35.0 	38.0 	36.0 	39.0 	38.0 	39.0 	33.0 	34.0 	32.0 	35.0 	33.0 	34.0 	32.0 	35.0 	35.0 	37.0 	35.0 	38.0 	34.0 	37.0 	35.0 	38.0 
33.0 	34.0 	33.0 	35.0 	32.0 	35.0 	32.0 	34.0 	39.0 	40.0 	36.0 	39.0 	37.0 	39.0 	39.0 	40.0 	33.0 	34.0 	33.0 	35.0 	33.0 	34.0 	32.0 	35.0 	34.0 	37.0 	35.0 	38.0 	35.0 	38.0 	36.0 	39.0 
32.0 	32.0 	32.0 	34.0 	31.0 	34.0 	31.0 	33.0 	38.0 	39.0 	35.0 	38.0 	36.0 	38.0 	39.0 	38.0 	32.0 	33.0 	32.0 	34.0 	33.0 	33.0 	31.0 	34.0 	34.0 	36.0 	34.0 	38.0 	34.0 	37.0 	34.0 	38.0 
31.0 	31.0 	31.0 	33.0 	30.0 	33.0 	30.0 	32.0 	37.0 	38.0 	33.0 	37.0 	35.0 	36.0 	37.0 	37.0 	30.0 	32.0 	31.0 	32.0 	31.0 	32.0 	30.0 	32.0 	32.0 	35.0 	33.0 	36.0 	33.0 	35.0 	33.0 	36.0 
29.0 	29.0 	29.0 	31.0 	29.0 	31.0 	28.0 	30.0 	35.0 	36.0 	32.0 	35.0 	33.0 	35.0 	36.0 	35.0 	29.0 	30.0 	29.0 	31.0 	29.0 	30.0 	28.0 	31.0 	30.0 	33.0 	31.0 	34.0 	31.0 	34.0 	31.0 	34.0 
28.0 	28.0 	28.0 	30.0 	27.0 	29.0 	27.0 	29.0 	34.0 	34.0 	31.0 	33.0 	32.0 	33.0 	34.0 	34.0 	28.0 	29.0 	28.0 	29.0 	28.0 	29.0 	27.0 	29.0 	29.0 	31.0 	30.0 	33.0 	30.0 	32.0 	30.0 	33.0 
26.0 	26.0 	27.0 	28.0 	26.0 	28.0 	25.0 	27.0 	31.0 	32.0 	29.0 	32.0 	30.0 	32.0 	32.0 	32.0 	26.0 	27.0 	26.0 	28.0 	26.0 	27.0 	25.0 	27.0 	27.0 	29.0 	28.0 	31.0 	28.0 	30.0 	28.0 	31.0 
25.0 	25.0 	25.0 	27.0 	25.0 	27.0 	24.0 	26.0 	29.0 	30.0 	28.0 	30.0 	30.0 	30.0 	30.0 	30.0 	24.0 	26.0 	24.0 	26.0 	30.0 	25.0 	23.0 	26.0 	26.0 	28.0 	26.0 	30.0 	27.0 	29.0 	27.0 	30.0 
29.0 	28.0 	29.0 	30.0 	27.0 	29.0 	28.0 	30.0 	32.0 	32.0 	31.0 	33.0 	32.0 	33.0 	33.0 	33.0 	26.0 	29.0 	35.0 	29.0 	39.0 	30.0 	29.0 	28.0 	29.0 	32.0 	30.0 	33.0 	30.0 	32.0 	31.0 	33.0 
26.0 	27.0 	29.0 	28.0 	29.0 	27.0 	25.0 	27.0 	30.0 	30.0 	28.0 	30.0 	29.0 	30.0 	30.0 	30.0 	25.0 	26.0 	35.0 	27.0 	35.0 	28.0 	27.0 	27.0 	27.0 	30.0 	28.0 	31.0 	28.0 	30.0 	28.0 	31.0 
27.0 	28.0 	29.0 	30.0 	29.0 	30.0 	27.0 	29.0 	30.0 	31.0 	29.0 	31.0 	30.0 	31.0 	31.0 	31.0 	26.0 	28.0 	32.0 	28.0 	29.0 	28.0 	26.0 	28.0 	28.0 	31.0 	29.0 	32.0 	29.0 	31.0 	29.0 	32.0 
25.0 	26.0 	26.0 	27.0 	26.0 	27.0 	26.0 	27.0 	28.0 	28.0 	26.0 	28.0 	27.0 	29.0 	28.0 	28.0 	24.0 	26.0 	24.0 	26.0 	24.0 	25.0 	24.0 	26.0 	26.0 	28.0 	26.0 	29.0 	27.0 	29.0 	26.0 	29.0 
27.0 	30.0 	29.0 	30.0 	28.0 	30.0 	29.0 	30.0 	31.0 	32.0 	29.0 	31.0 	31.0 	32.0 	32.0 	32.0 	28.0 	29.0 	27.0 	29.0 	27.0 	29.0 	27.0 	29.0 	29.0 	31.0 	29.0 	32.0 	30.0 	32.0 	29.0 	32.0 
29.0 	30.0 	30.0 	31.0 	29.0 	31.0 	30.0 	31.0 	33.0 	33.0 	30.0 	33.0 	32.0 	33.0 	33.0 	33.0 	28.0 	30.0 	29.0 	30.0 	28.0 	30.0 	28.0 	30.0 	30.0 	32.0 	31.0 	33.0 	31.0 	33.0 	31.0 	34.0 
29.0 	32.0 	30.0 	32.0 	30.0 	32.0 	31.0 	32.0 	34.0 	35.0 	32.0 	34.0 	33.0 	35.0 	34.0 	35.0 	30.0 	31.0 	30.0 	31.0 	30.0 	31.0 	29.0 	31.0 	31.0 	34.0 	32.0 	35.0 	32.0 	34.0 	32.0 	35.0 
30.0 	32.0 	32.0 	33.0 	31.0 	33.0 	31.0 	33.0 	36.0 	36.0 	33.0 	36.0 	34.0 	36.0 	36.0 	36.0 	31.0 	32.0 	31.0 	33.0 	31.0 	32.0 	30.0 	32.0 	32.0 	35.0 	33.0 	36.0 	34.0 	36.0 	33.0 	36.0 
32.0 	34.0 	33.0 	34.0 	32.0 	35.0 	32.0 	34.0 	37.0 	38.0 	34.0 	37.0 	35.0 	38.0 	37.0 	37.0 	32.0 	33.0 	32.0 	34.0 	32.0 	33.0 	31.0 	34.0 	33.0 	36.0 	34.0 	37.0 	34.0 	37.0 	34.0 	38.0 
32.0 	34.0 	33.0 	35.0 	33.0 	35.0 	33.0 	34.0 	38.0 	38.0 	35.0 	38.0 	36.0 	38.0 	38.0 	39.0 	33.0 	34.0 	32.0 	35.0 	33.0 	34.0 	32.0 	35.0 	34.0 	37.0 	35.0 	38.0 	35.0 	38.0 	35.0 	38.0 
33.0 	35.0 	34.0 	36.0 	33.0 	36.0 	33.0 	35.0 	39.0 	39.0 	35.0 	38.0 	36.0 	39.0 	39.0 	39.0 	33.0 	35.0 	33.0 	35.0 	33.0 	35.0 	32.0 	35.0 	35.0 	37.0 	35.0 	39.0 	35.0 	38.0 	35.0 	39.0 
33.0 	34.0 	34.0 	35.0 	33.0 	36.0 	33.0 	35.0 	38.0 	39.0 	35.0 	39.0 	36.0 	39.0 	39.0 	39.0 	33.0 	34.0 	33.0 	35.0 	34.0 	35.0 	32.0 	35.0 	35.0 	37.0 	35.0 	39.0 	36.0 	38.0 	36.0 	39.0 
33.0 	34.0 	34.0 	35.0 	33.0 	35.0 	33.0 	35.0 	39.0 	39.0 	35.0 	38.0 	36.0 	39.0 	39.0 	39.0 	33.0 	35.0 	33.0 	35.0 	33.0 	34.0 	32.0 	35.0 	34.0 	38.0 	35.0 	39.0 	36.0 	39.0 	36.0 	39.0 
33.0 	34.0 	33.0 	36.0 	34.0 	36.0 	33.0 	35.0 	40.0 	40.0 	37.0 	40.0 	37.0 	41.0 	40.0 	40.0 	33.0 	35.0 	34.0 	35.0 	34.0 	35.0 	32.0 	35.0 	35.0 	38.0 	36.0 	39.0 	36.0 	39.0 	35.0 	39.0 
33.0 	33.0 	33.0 	35.0 	33.0 	35.0 	32.0 	34.0 	40.0 	39.0 	36.0 	38.0 	36.0 	39.0 	39.0 	39.0 	32.0 	34.0 	33.0 	34.0 	33.0 	34.0 	32.0 	34.0 	34.0 	37.0 	35.0 	38.0 	35.0 	38.0 	34.0 	38.0 
32.0 	33.0 	32.0 	35.0 	32.0 	34.0 	31.0 	33.0 	38.0 	38.0 	35.0 	38.0 	35.0 	39.0 	38.0 	38.0 	32.0 	33.0 	32.0 	33.0 	33.0 	33.0 	31.0 	33.0 	33.0 	36.0 	34.0 	37.0 	34.0 	37.0 	33.0 	37.0 
30.0 	31.0 	30.0 	33.0 	31.0 	33.0 	30.0 	32.0 	37.0 	37.0 	34.0 	36.0 	34.0 	37.0 	37.0 	37.0 	30.0 	32.0 	31.0 	32.0 	31.0 	32.0 	29.0 	32.0 	32.0 	35.0 	32.0 	36.0 	33.0 	36.0 	32.0 	36.0 
29.0 	30.0 	29.0 	32.0 	30.0 	31.0 	28.0 	30.0 	36.0 	36.0 	33.0 	35.0 	33.0 	36.0 	36.0 	36.0 	29.0 	31.0 	29.0 	30.0 	30.0 	31.0 	28.0 	30.0 	31.0 	33.0 	31.0 	34.0 	31.0 	34.0 	30.0 	34.0 
29.0 	28.0 	28.0 	31.0 	28.0 	30.0 	27.0 	29.0 	34.0 	34.0 	34.0 	33.0 	33.0 	34.0 	34.0 	34.0 	27.0 	29.0 	27.0 	29.0 	34.0 	28.0 	26.0 	29.0 	29.0 	32.0 	29.0 	33.0 	30.0 	32.0 	29.0 	32.0 
31.0 	27.0 	29.0 	30.0 	28.0 	28.0 	27.0 	28.0 	33.0 	32.0 	31.0 	32.0 	31.0 	33.0 	32.0 	33.0 	26.0 	27.0 	44.0 	29.0 	58.0 	36.0 	35.0 	28.0 	28.0 	31.0 	28.0 	32.0 	28.0 	31.0 	28.0 	31.0 
34.0 	31.0 	48.0 	38.0 	49.0 	38.0 	29.0 	33.0 	36.0 	35.0 	30.0 	35.0 	29.0 	35.0 	35.0 	35.0 	51.0 	39.0 	56.0 	40.0 	45.0 	45.0 	45.0 	41.0 	32.0 	35.0 	31.0 	36.0 	33.0 	35.0 	32.0 	36.0 
32.0 	29.0 	39.0 	34.0 	45.0 	39.0 	36.0 	36.0 	33.0 	32.0 	30.0 	33.0 	29.0 	33.0 	32.0 	33.0 	53.0 	38.0 	39.0 	32.0 	45.0 	36.0 	37.0 	35.0 	30.0 	33.0 	28.0 	34.0 	31.0 	34.0 	29.0 	34.0 
30.0 	33.0 	32.0 	31.0 	31.0 	32.0 	40.0 	32.0 	33.0 	32.0 	30.0 	33.0 	28.0 	34.0 	32.0 	33.0 	52.0 	34.0 	47.0 	34.0 	50.0 	40.0 	40.0 	35.0 	31.0 	33.0 	30.0 	34.0 	31.0 	34.0 	30.0 	34.0 
27.0 	30.0 	29.0 	30.0 	29.0 	29.0 	30.0 	29.0 	31.0 	30.0 	29.0 	30.0 	29.0 	32.0 	30.0 	31.0 	32.0 	28.0 	36.0 	27.0 	28.0 	28.0 	26.0 	27.0 	29.0 	30.0 	29.0 	32.0 	29.0 	32.0 	28.0 	31.0 
30.0 	33.0 	32.0 	33.0 	32.0 	33.0 	30.0 	32.0 	34.0 	34.0 	32.0 	34.0 	32.0 	35.0 	34.0 	34.0 	29.0 	31.0 	29.0 	31.0 	30.0 	32.0 	29.0 	31.0 	32.0 	34.0 	32.0 	35.0 	32.0 	35.0 	31.0 	34.0 
30.0 	33.0 	31.0 	34.0 	32.0 	33.0 	32.0 	33.0 	35.0 	35.0 	33.0 	35.0 	33.0 	36.0 	35.0 	35.0 	31.0 	32.0 	31.0 	32.0 	31.0 	32.0 	29.0 	32.0 	32.0 	35.0 	33.0 	36.0 	33.0 	36.0 	32.0 	35.0 
32.0 	34.0 	32.0 	35.0 	33.0 	34.0 	32.0 	34.0 	37.0 	37.0 	34.0 	36.0 	34.0 	37.0 	36.0 	37.0 	31.0 	33.0 	32.0 	33.0 	32.0 	34.0 	31.0 	33.0 	34.0 	36.0 	34.0 	37.0 	34.0 	37.0 	33.0 	37.0 
32.0 	34.0 	33.0 	35.0 	33.0 	35.0 	33.0 	35.0 	38.0 	38.0 	35.0 	38.0 	35.0 	39.0 	37.0 	38.0 	32.0 	34.0 	33.0 	34.0 	33.0 	34.0 	32.0 	34.0 	35.0 	37.0 	35.0 	38.0 	35.0 	38.0 	34.0 	38.0 
33.0 	36.0 	34.0 	37.0 	35.0 	36.0 	34.0 	36.0 	40.0 	39.0 	37.0 	39.0 	37.0 	40.0 	39.0 	39.0 	34.0 	36.0 	34.0 	35.0 	34.0 	36.0 	33.0 	36.0 	36.0 	38.0 	36.0 	40.0 	36.0 	39.0 	35.0 	40.0 
34.0 	36.0 	34.0 	37.0 	35.0 	37.0 	35.0 	36.0 	40.0 	40.0 	37.0 	40.0 	37.0 	41.0 	40.0 	40.0 	34.0 	36.0 	34.0 	36.0 	35.0 	36.0 	33.0 	36.0 	36.0 	39.0 	36.0 	40.0 	37.0 	40.0 	36.0 	40.0 
34.0 	36.0 	34.0 	37.0 	34.0 	36.0 	34.0 	36.0 	40.0 	40.0 	36.0 	39.0 	36.0 	41.0 	39.0 	40.0 	34.0 	35.0 	34.0 	35.0 	34.0 	36.0 	33.0 	36.0 	36.0 	38.0 	36.0 	40.0 	36.0 	39.0 	35.0 	40.0 
33.0 	35.0 	34.0 	37.0 	34.0 	36.0 	34.0 	35.0 	40.0 	40.0 	37.0 	39.0 	36.0 	40.0 	39.0 	40.0 	33.0 	35.0 	34.0 	35.0 	34.0 	35.0 	32.0 	35.0 	36.0 	38.0 	36.0 	39.0 	36.0 	39.0 	35.0 	39.0 
33.0 	35.0 	34.0 	36.0 	34.0 	36.0 	34.0 	35.0 	40.0 	40.0 	36.0 	39.0 	36.0 	40.0 	39.0 	40.0 	33.0 	35.0 	34.0 	35.0 	34.0 	35.0 	32.0 	35.0 	35.0 	38.0 	36.0 	39.0 	36.0 	39.0 	35.0 	39.0 
31.0 	31.0 	31.0 	33.0 	31.0 	34.0 	31.0 	32.0 	38.0 	38.0 	34.0 	38.0 	34.0 	39.0 	37.0 	37.0 	31.0 	33.0 	31.0 	33.0 	32.0 	33.0 	30.0 	33.0 	33.0 	35.0 	33.0 	36.0 	33.0 	36.0 	33.0 	36.0 
36.0 	36.0 	35.0 	38.0 	36.0 	38.0 	35.0 	37.0 	43.0 	43.0 	39.0 	44.0 	39.0 	44.0 	43.0 	43.0 	36.0 	38.0 	36.0 	38.0 	37.0 	38.0 	35.0 	38.0 	38.0 	41.0 	38.0 	41.0 	38.0 	41.0 	38.0 	41.0 
35.0 	36.0 	35.0 	37.0 	35.0 	37.0 	35.0 	36.0 	42.0 	42.0 	38.0 	42.0 	38.0 	43.0 	41.0 	42.0 	35.0 	37.0 	35.0 	37.0 	36.0 	37.0 	34.0 	37.0 	37.0 	39.0 	38.0 	40.0 	37.0 	40.0 	37.0 	40.0 
33.0 	33.0 	33.0 	35.0 	33.0 	35.0 	32.0 	34.0 	39.0 	39.0 	36.0 	40.0 	35.0 	40.0 	38.0 	39.0 	33.0 	35.0 	33.0 	35.0 	34.0 	34.0 	32.0 	35.0 	35.0 	37.0 	36.0 	38.0 	35.0 	38.0 	35.0 	38.0 
33.0 	34.0 	34.0 	36.0 	34.0 	36.0 	33.0 	35.0 	38.0 	38.0 	51.0 	41.0 	46.0 	41.0 	37.0 	39.0 	33.0 	35.0 	33.0 	35.0 	33.0 	34.0 	32.0 	35.0 	35.0 	38.0 	36.0 	38.0 	35.0 	39.0 	35.0 	39.0 
42.0 	31.0 	30.0 	32.0 	30.0 	33.0 	31.0 	33.0 	33.0 	33.0 	57.0 	42.0 	57.0 	42.0 	32.0 	38.0 	30.0 	32.0 	35.0 	34.0 	57.0 	37.0 	39.0 	33.0 	33.0 	35.0 	33.0 	35.0 	32.0 	36.0 	33.0 	36.0 
40.0 	29.0 	46.0 	44.0 	44.0 	36.0 	28.0 	31.0 	31.0 	34.0 	67.0 	39.0 	70.0 	41.0 	30.0 	32.0 	54.0 	45.0 	74.0 	53.0 	74.0 	62.0 	66.0 	52.0 	30.0 	33.0 	31.0 	33.0 	32.0 	33.0 	30.0 	33.0 
41.0 	33.0 	56.0 	50.0 	63.0 	54.0 	40.0 	49.0 	32.0 	38.0 	42.0 	32.0 	43.0 	34.0 	31.0 	32.0 	68.0 	62.0 	73.0 	57.0 	53.0 	57.0 	53.0 	54.0 	34.0 	35.0 	43.0 	36.0 	63.0 	38.0 	33.0 	37.0 
44.0 	43.0 	72.0 	47.0 	61.0 	54.0 	59.0 	47.0 	35.0 	34.0 	34.0 	32.0 	36.0 	32.0 	34.0 	30.0 	47.0 	47.0 	51.0 	47.0 	51.0 	49.0 	41.0 	38.0 	32.0 	32.0 	50.0 	33.0 	69.0 	33.0 	32.0 	34.0 
39.0 	54.0 	85.0 	47.0 	81.0 	50.0 	49.0 	46.0 	35.0 	35.0 	27.0 	32.0 	27.0 	28.0 	34.0 	34.0 	55.0 	53.0 	58.0 	54.0 	73.0 	57.0 	53.0 	52.0 	31.0 	34.0 	39.0 	35.0 	51.0 	35.0 	32.0 	35.0 
31.0 	39.0 	54.0 	40.0 	61.0 	41.0 	48.0 	38.0 	33.0 	33.0 	29.0 	34.0 	29.0 	33.0 	32.0 	33.0 	58.0 	35.0 	63.0 	38.0 	45.0 	38.0 	42.0 	36.0 	31.0 	33.0 	32.0 	33.0 	36.0 	34.0 	30.0 	34.0 
32.0 	31.0 	43.0 	37.0 	41.0 	37.0 	37.0 	35.0 	36.0 	36.0 	33.0 	37.0 	33.0 	38.0 	36.0 	36.0 	32.0 	32.0 	34.0 	33.0 	31.0 	32.0 	30.0 	32.0 	34.0 	36.0 	34.0 	36.0 	33.0 	37.0 	33.0 	36.0 
32.0 	34.0 	35.0 	35.0 	36.0 	36.0 	36.0 	36.0 	38.0 	38.0 	34.0 	38.0 	34.0 	39.0 	37.0 	37.0 	32.0 	34.0 	33.0 	35.0 	33.0 	34.0 	32.0 	34.0 	35.0 	37.0 	35.0 	37.0 	34.0 	38.0 	34.0 	38.0 
33.0 	35.0 	33.0 	36.0 	34.0 	36.0 	35.0 	35.0 	39.0 	39.0 	35.0 	39.0 	35.0 	40.0 	38.0 	39.0 	34.0 	35.0 	34.0 	36.0 	34.0 	35.0 	33.0 	35.0 	36.0 	38.0 	36.0 	38.0 	35.0 	39.0 	35.0 	39.0 
34.0 	36.0 	34.0 	36.0 	34.0 	37.0 	35.0 	36.0 	40.0 	40.0 	36.0 	40.0 	37.0 	41.0 	39.0 	40.0 	34.0 	36.0 	35.0 	37.0 	35.0 	36.0 	33.0 	36.0 	36.0 	39.0 	37.0 	39.0 	36.0 	40.0 	36.0 	40.0 
34.0 	36.0 	35.0 	37.0 	35.0 	38.0 	35.0 	37.0 	41.0 	41.0 	37.0 	41.0 	37.0 	42.0 	40.0 	40.0 	35.0 	36.0 	35.0 	37.0 	35.0 	36.0 	34.0 	36.0 	37.0 	39.0 	38.0 	39.0 	37.0 	40.0 	37.0 	40.0 
34.0 	36.0 	34.0 	37.0 	34.0 	37.0 	35.0 	36.0 	40.0 	41.0 	36.0 	41.0 	37.0 	42.0 	40.0 	40.0 	35.0 	36.0 	35.0 	37.0 	35.0 	36.0 	33.0 	36.0 	37.0 	39.0 	37.0 	39.0 	36.0 	40.0 	36.0 	40.0 
34.0 	35.0 	34.0 	36.0 	34.0 	37.0 	35.0 	36.0 	40.0 	41.0 	36.0 	41.0 	37.0 	42.0 	40.0 	40.0 	34.0 	36.0 	34.0 	37.0 	35.0 	36.0 	33.0 	36.0 	37.0 	39.0 	37.0 	39.0 	36.0 	40.0 	36.0 	40.0 
33.0 	35.0 	33.0 	36.0 	34.0 	37.0 	34.0 	35.0 	40.0 	40.0 	36.0 	41.0 	36.0 	41.0 	39.0 	40.0 	34.0 	36.0 	34.0 	36.0 	34.0 	35.0 	33.0 	36.0 	36.0 	39.0 	36.0 	38.0 	36.0 	40.0 	36.0 	39.0 
33.0 	35.0 	33.0 	36.0 	33.0 	36.0 	34.0 	35.0 	40.0 	40.0 	36.0 	40.0 	36.0 	41.0 	39.0 	40.0 	34.0 	35.0 	34.0 	36.0 	34.0 	35.0 	32.0 	35.0 	36.0 	38.0 	37.0 	38.0 	36.0 	39.0 	36.0 	39.0 
29.0 	29.0 	28.0 	30.0 	29.0 	31.0 	28.0 	30.0 	36.0 	36.0 	32.0 	36.0 	32.0 	36.0 	35.0 	35.0 	29.0 	30.0 	29.0 	31.0 	30.0 	30.0 	28.0 	31.0 	31.0 	33.0 	31.0 	33.0 	31.0 	35.0 	31.0 	34.0 
31.0 	32.0 	31.0 	33.0 	31.0 	33.0 	30.0 	32.0 	37.0 	37.0 	34.0 	37.0 	35.0 	38.0 	36.0 	37.0 	31.0 	32.0 	32.0 	34.0 	32.0 	32.0 	31.0 	33.0 	33.0 	35.0 	34.0 	36.0 	33.0 	36.0 	33.0 	36.0 
29.0 	29.0 	28.0 	30.0 	28.0 	31.0 	28.0 	30.0 	38.0 	38.0 	30.0 	34.0 	31.0 	34.0 	36.0 	34.0 	28.0 	30.0 	29.0 	31.0 	30.0 	29.0 	28.0 	30.0 	30.0 	32.0 	31.0 	33.0 	30.0 	33.0 	30.0 	33.0 
22.0 	23.0 	23.0 	24.0 	23.0 	25.0 	23.0 	24.0 	48.0 	43.0 	39.0 	32.0 	34.0 	28.0 	48.0 	39.0 	23.0 	24.0 	23.0 	25.0 	24.0 	24.0 	23.0 	24.0 	24.0 	26.0 	25.0 	27.0 	25.0 	27.0 	24.0 	27.0 
41.0 	26.0 	25.0 	27.0 	26.0 	28.0 	25.0 	27.0 	46.0 	36.0 	75.0 	56.0 	68.0 	52.0 	52.0 	62.0 	25.0 	26.0 	26.0 	27.0 	28.0 	27.0 	25.0 	26.0 	27.0 	29.0 	28.0 	29.0 	27.0 	30.0 	28.0 	30.0 
64.0 	27.0 	31.0 	34.0 	28.0 	29.0 	26.0 	28.0 	40.0 	35.0 	91.0 	84.0 	90.0 	73.0 	36.0 	79.0 	32.0 	36.0 	29.0 	44.0 	55.0 	53.0 	50.0 	40.0 	28.0 	30.0 	28.0 	31.0 	26.0 	31.0 	28.0 	31.0 
70.0 	31.0 	61.0 	56.0 	65.0 	50.0 	32.0 	47.0 	39.0 	31.0 	115.0 	71.0 	117.0 	70.0 	36.0 	45.0 	81.0 	79.0 	81.0 	88.0 	101.0 	91.0 	94.0 	89.0 	33.0 	34.0 	38.0 	36.0 	48.0 	36.0 	38.0 	36.0 
88.0 	45.0 	79.0 	65.0 	79.0 	69.0 	58.0 	57.0 	32.0 	31.0 	77.0 	38.0 	81.0 	43.0 	28.0 	38.0 	85.0 	75.0 	106.0 	102.0 	99.0 	105.0 	93.0 	95.0 	47.0 	52.0 	83.0 	41.0 	97.0 	37.0 	68.0 	43.0 
85.0 	60.0 	114.0 	90.0 	99.0 	87.0 	69.0 	73.0 	40.0 	40.0 	47.0 	38.0 	53.0 	39.0 	31.0 	32.0 	56.0 	46.0 	99.0 	111.0 	94.0 	112.0 	85.0 	94.0 	68.0 	58.0 	97.0 	49.0 	104.0 	62.0 	73.0 	49.0 
54.0 	63.0 	122.0 	99.0 	126.0 	106.0 	90.0 	104.0 	40.0 	36.0 	38.0 	30.0 	41.0 	33.0 	36.0 	30.0 	54.0 	56.0 	98.0 	105.0 	106.0 	107.0 	87.0 	101.0 	53.0 	45.0 	77.0 	42.0 	91.0 	47.0 	47.0 	44.0 
41.0 	75.0 	85.0 	68.0 	100.0 	77.0 	106.0 	84.0 	35.0 	35.0 	34.0 	33.0 	38.0 	35.0 	34.0 	35.0 	84.0 	63.0 	95.0 	79.0 	60.0 	75.0 	79.0 	75.0 	37.0 	34.0 	48.0 	35.0 	59.0 	35.0 	33.0 	35.0 
34.0 	63.0 	76.0 	49.0 	66.0 	54.0 	79.0 	57.0 	38.0 	38.0 	35.0 	38.0 	36.0 	39.0 	37.0 	38.0 	51.0 	35.0 	41.0 	37.0 	32.0 	34.0 	34.0 	35.0 	36.0 	37.0 	34.0 	38.0 	32.0 	39.0 	35.0 	38.0 
34.0 	43.0 	53.0 	40.0 	52.0 	43.0 	56.0 	40.0 	39.0 	39.0 	35.0 	39.0 	36.0 	40.0 	38.0 	39.0 	32.0 	35.0 	33.0 	35.0 	34.0 	34.0 	33.0 	35.0 	36.0 	38.0 	36.0 	39.0 	35.0 	40.0 	35.0 	39.0 
34.0 	40.0 	33.0 	35.0 	34.0 	36.0 	41.0 	37.0 	40.0 	40.0 	36.0 	40.0 	37.0 	41.0 	39.0 	40.0 	35.0 	35.0 	34.0 	36.0 	35.0 	35.0 	33.0 	36.0 	37.0 	38.0 	37.0 	39.0 	36.0 	41.0 	36.0 	40.0 
35.0 	37.0 	35.0 	37.0 	35.0 	38.0 	35.0 	37.0 	41.0 	41.0 	37.0 	41.0 	38.0 	42.0 	40.0 	41.0 	35.0 	36.0 	35.0 	37.0 	36.0 	36.0 	34.0 	37.0 	38.0 	39.0 	38.0 	40.0 	37.0 	42.0 	37.0 	41.0 
34.0 	37.0 	34.0 	37.0 	35.0 	37.0 	35.0 	37.0 	42.0 	41.0 	37.0 	41.0 	37.0 	42.0 	40.0 	41.0 	35.0 	36.0 	35.0 	37.0 	35.0 	36.0 	34.0 	36.0 	37.0 	39.0 	38.0 	40.0 	37.0 	41.0 	37.0 	40.0 
34.0 	36.0 	34.0 	36.0 	34.0 	37.0 	35.0 	36.0 	41.0 	41.0 	36.0 	41.0 	37.0 	41.0 	40.0 	41.0 	35.0 	36.0 	35.0 	37.0 	35.0 	35.0 	34.0 	36.0 	37.0 	39.0 	37.0 	40.0 	36.0 	41.0 	37.0 	40.0 
34.0 	36.0 	34.0 	36.0 	34.0 	37.0 	34.0 	36.0 	41.0 	41.0 	36.0 	41.0 	37.0 	42.0 	40.0 	41.0 	34.0 	36.0 	35.0 	37.0 	35.0 	35.0 	34.0 	36.0 	37.0 	39.0 	37.0 	40.0 	36.0 	41.0 	37.0 	40.0 
34.0 	36.0 	34.0 	36.0 	34.0 	37.0 	34.0 	36.0 	41.0 	41.0 	36.0 	41.0 	37.0 	41.0 	40.0 	41.0 	34.0 	35.0 	34.0 	37.0 	35.0 	35.0 	33.0 	36.0 	37.0 	39.0 	37.0 	40.0 	36.0 	41.0 	37.0 	40.0 
34.0 	36.0 	34.0 	36.0 	34.0 	37.0 	34.0 	36.0 	42.0 	41.0 	36.0 	41.0 	37.0 	41.0 	40.0 	41.0 	34.0 	35.0 	35.0 	37.0 	35.0 	36.0 	33.0 	36.0 	37.0 	39.0 	37.0 	40.0 	36.0 	41.0 	37.0 	40.0 
5.0 	5.0 	5.0 	5.0 	4.0 	5.0 	4.0 	5.0 	7.0 	6.0 	5.0 	7.0 	6.0 	7.0 	7.0 	7.0 	4.0 	5.0 	5.0 	5.0 	5.0 	5.0 	4.0 	5.0 	5.0 	6.0 	5.0 	6.0 	5.0 	6.0 	5.0 	6.0 
3.0 	3.0 	3.0 	3.0 	3.0 	3.0 	2.0 	3.0 	2.0 	5.0 	3.0 	4.0 	4.0 	4.0 	2.0 	4.0 	3.0 	3.0 	3.0 	3.0 	3.0 	3.0 	3.0 	3.0 	3.0 	4.0 	4.0 	4.0 	3.0 	4.0 	3.0 	4.0 
7.0 	7.0 	7.0 	7.0 	6.0 	7.0 	6.0 	7.0 	33.0 	47.0 	6.0 	7.0 	6.0 	7.0 	28.0 	9.0 	6.0 	7.0 	7.0 	7.0 	7.0 	7.0 	6.0 	7.0 	7.0 	8.0 	8.0 	8.0 	7.0 	8.0 	7.0 	8.0 
3.0 	5.0 	5.0 	5.0 	5.0 	5.0 	4.0 	5.0 	79.0 	75.0 	41.0 	26.0 	30.0 	16.0 	79.0 	41.0 	5.0 	5.0 	5.0 	5.0 	4.0 	4.0 	4.0 	5.0 	5.0 	6.0 	6.0 	6.0 	5.0 	6.0 	6.0 	6.0 
52.0 	8.0 	7.0 	9.0 	8.0 	8.0 	8.0 	9.0 	89.0 	56.0 	81.0 	55.0 	74.0 	57.0 	101.0 	81.0 	9.0 	10.0 	9.0 	10.0 	15.0 	14.0 	10.0 	9.0 	9.0 	11.0 	9.0 	10.0 	9.0 	10.0 	9.0 	10.0 
84.0 	19.0 	30.0 	37.0 	23.0 	23.0 	16.0 	20.0 	56.0 	48.0 	99.0 	98.0 	98.0 	79.0 	55.0 	109.0 	22.0 	36.0 	18.0 	44.0 	53.0 	53.0 	42.0 	40.0 	18.0 	14.0 	18.0 	18.0 	18.0 	21.0 	18.0 	18.0 
101.0 	36.0 	75.0 	71.0 	80.0 	60.0 	43.0 	60.0 	49.0 	44.0 	125.0 	83.0 	130.0 	78.0 	45.0 	58.0 	83.0 	100.0 	77.0 	86.0 	101.0 	85.0 	100.0 	101.0 	37.0 	7.0 	65.0 	15.0 	68.0 	23.0 	70.0 	17.0 
119.0 	57.0 	83.0 	95.0 	75.0 	86.0 	71.0 	77.0 	48.0 	42.0 	105.0 	49.0 	109.0 	57.0 	43.0 	47.0 	117.0 	112.0 	105.0 	101.0 	113.0 	107.0 	115.0 	119.0 	83.0 	18.0 	107.0 	25.0 	106.0 	13.0 	104.0 	13.0 
119.0 	73.0 	115.0 	111.0 	107.0 	104.0 	86.0 	108.0 	56.0 	59.0 	77.0 	47.0 	87.0 	51.0 	44.0 	46.0 	100.0 	97.0 	117.0 	132.0 	120.0 	127.0 	119.0 	131.0 	106.0 	70.0 	110.0 	101.0 	110.0 	101.0 	104.0 	95.0 
84.0 	97.0 	110.0 	81.0 	127.0 	103.0 	110.0 	125.0 	61.0 	42.0 	54.0 	43.0 	60.0 	45.0 	50.0 	41.0 	102.0 	108.0 	117.0 	106.0 	112.0 	108.0 	108.0 	121.0 	95.0 	17.0 	103.0 	26.0 	111.0 	35.0 	85.0 	30.0 
63.0 	120.0 	90.0 	45.0 	105.0 	64.0 	127.0 	91.0 	35.0 	35.0 	49.0 	42.0 	55.0 	50.0 	35.0 	43.0 	111.0 	108.0 	99.0 	94.0 	59.0 	94.0 	89.0 	106.0 	66.0 	23.0 	76.0 	27.0 	90.0 	20.0 	48.0 	28.0 
42.0 	119.0 	91.0 	73.0 	94.0 	86.0 	103.0 	71.0 	39.0 	39.0 	37.0 	40.0 	42.0 	46.0 	39.0 	39.0 	61.0 	49.0 	40.0 	48.0 	31.0 	45.0 	39.0 	47.0 	35.0 	38.0 	34.0 	39.0 	39.0 	36.0 	35.0 	39.0 
34.0 	83.0 	77.0 	49.0 	82.0 	63.0 	90.0 	61.0 	40.0 	39.0 	36.0 	40.0 	36.0 	40.0 	40.0 	40.0 	33.0 	34.0 	34.0 	35.0 	35.0 	34.0 	33.0 	34.0 	37.0 	40.0 	38.0 	40.0 	36.0 	40.0 	37.0 	40.0 
35.0 	54.0 	35.0 	37.0 	38.0 	36.0 	68.0 	41.0 	41.0 	40.0 	37.0 	41.0 	38.0 	42.0 	41.0 	41.0 	35.0 	36.0 	35.0 	37.0 	36.0 	36.0 	34.0 	36.0 	38.0 	41.0 	39.0 	41.0 	37.0 	41.0 	38.0 	41.0 
36.0 	42.0 	36.0 	39.0 	35.0 	38.0 	36.0 	38.0 	42.0 	42.0 	38.0 	42.0 	39.0 	43.0 	42.0 	43.0 	36.0 	37.0 	37.0 	38.0 	37.0 	37.0 	35.0 	38.0 	38.0 	42.0 	39.0 	42.0 	38.0 	42.0 	39.0 	42.0 
36.0 	38.0 	36.0 	39.0 	36.0 	38.0 	36.0 	39.0 	43.0 	42.0 	38.0 	43.0 	39.0 	43.0 	42.0 	43.0 	36.0 	37.0 	37.0 	39.0 	37.0 	37.0 	35.0 	38.0 	39.0 	42.0 	40.0 	43.0 	39.0 	42.0 	39.0 	42.0 
35.0 	38.0 	36.0 	38.0 	36.0 	38.0 	36.0 	38.0 	42.0 	42.0 	37.0 	42.0 	39.0 	43.0 	42.0 	42.0 	36.0 	37.0 	36.0 	38.0 	36.0 	37.0 	35.0 	37.0 	38.0 	42.0 	39.0 	42.0 	38.0 	41.0 	38.0 	42.0 
35.0 	37.0 	35.0 	38.0 	35.0 	37.0 	35.0 	37.0 	42.0 	41.0 	37.0 	41.0 	38.0 	42.0 	41.0 	42.0 	35.0 	36.0 	36.0 	38.0 	36.0 	36.0 	34.0 	37.0 	37.0 	41.0 	39.0 	41.0 	37.0 	41.0 	38.0 	41.0 
34.0 	37.0 	34.0 	37.0 	34.0 	36.0 	34.0 	37.0 	41.0 	41.0 	37.0 	41.0 	37.0 	42.0 	41.0 	42.0 	34.0 	36.0 	35.0 	37.0 	35.0 	36.0 	33.0 	36.0 	37.0 	40.0 	38.0 	41.0 	37.0 	40.0 	38.0 	41.0 
33.0 	35.0 	33.0 	36.0 	33.0 	35.0 	32.0 	35.0 	40.0 	39.0 	35.0 	39.0 	36.0 	40.0 	40.0 	40.0 	33.0 	34.0 	34.0 	36.0 	34.0 	34.0 	32.0 	35.0 	36.0 	39.0 	37.0 	39.0 	35.0 	39.0 	36.0 	39.0 
11.0 	11.0 	10.0 	12.0 	10.0 	11.0 	10.0 	11.0 	13.0 	13.0 	12.0 	14.0 	13.0 	14.0 	14.0 	14.0 	11.0 	11.0 	11.0 	11.0 	11.0 	11.0 	10.0 	11.0 	12.0 	13.0 	11.0 	13.0 	11.0 	13.0 	11.0 	14.0 
20.0 	21.0 	20.0 	22.0 	20.0 	22.0 	20.0 	21.0 	23.0 	32.0 	22.0 	25.0 	23.0 	25.0 	23.0 	24.0 	20.0 	21.0 	21.0 	22.0 	21.0 	21.0 	20.0 	21.0 	22.0 	24.0 	22.0 	24.0 	21.0 	23.0 	22.0 	24.0 
31.0 	32.0 	31.0 	34.0 	31.0 	33.0 	31.0 	33.0 	68.0 	83.0 	33.0 	37.0 	34.0 	37.0 	61.0 	41.0 	32.0 	32.0 	32.0 	33.0 	32.0 	32.0 	31.0 	33.0 	33.0 	36.0 	34.0 	37.0 	33.0 	36.0 	33.0 	38.0 
16.0 	16.0 	16.0 	17.0 	16.0 	17.0 	15.0 	16.0 	100.0 	112.0 	37.0 	33.0 	32.0 	32.0 	95.0 	35.0 	15.0 	16.0 	16.0 	17.0 	17.0 	16.0 	15.0 	17.0 	17.0 	19.0 	17.0 	20.0 	17.0 	19.0 	17.0 	20.0 
65.0 	23.0 	22.0 	25.0 	22.0 	24.0 	22.0 	23.0 	116.0 	81.0 	60.0 	22.0 	55.0 	34.0 	120.0 	44.0 	23.0 	24.0 	23.0 	26.0 	20.0 	28.0 	21.0 	25.0 	24.0 	27.0 	24.0 	28.0 	24.0 	27.0 	24.0 	28.0 
91.0 	34.0 	49.0 	60.0 	44.0 	41.0 	32.0 	38.0 	79.0 	68.0 	83.0 	70.0 	78.0 	42.0 	76.0 	91.0 	26.0 	37.0 	23.0 	31.0 	38.0 	32.0 	35.0 	32.0 	34.0 	32.0 	37.0 	31.0 	35.0 	36.0 	43.0 	34.0 
103.0 	39.0 	89.0 	81.0 	92.0 	74.0 	51.0 	73.0 	69.0 	61.0 	115.0 	90.0 	114.0 	85.0 	60.0 	79.0 	72.0 	93.0 	60.0 	15.0 	83.0 	13.0 	87.0 	36.0 	55.0 	33.0 	91.0 	71.0 	88.0 	48.0 	104.0 	55.0 
118.0 	69.0 	77.0 	89.0 	77.0 	72.0 	85.0 	84.0 	63.0 	64.0 	103.0 	77.0 	107.0 	85.0 	55.0 	66.0 	108.0 	110.0 	93.0 	20.0 	94.0 	35.0 	101.0 	55.0 	109.0 	62.0 	130.0 	116.0 	128.0 	111.0 	113.0 	93.0 
126.0 	87.0 	101.0 	87.0 	96.0 	89.0 	81.0 	86.0 	73.0 	74.0 	94.0 	64.0 	98.0 	79.0 	65.0 	61.0 	119.0 	125.0 	96.0 	77.0 	100.0 	75.0 	110.0 	106.0 	109.0 	102.0 	119.0 	122.0 	121.0 	126.0 	109.0 	123.0 
106.0 	102.0 	103.0 	78.0 	102.0 	70.0 	102.0 	86.0 	74.0 	55.0 	79.0 	60.0 	86.0 	58.0 	74.0 	58.0 	127.0 	119.0 	100.0 	24.0 	100.0 	21.0 	111.0 	50.0 	108.0 	31.0 	126.0 	102.0 	131.0 	113.0 	101.0 	75.0 
91.0 	127.0 	87.0 	11.0 	82.0 	10.0 	107.0 	57.0 	38.0 	34.0 	60.0 	59.0 	66.0 	60.0 	38.0 	61.0 	111.0 	106.0 	90.0 	15.0 	50.0 	26.0 	86.0 	44.0 	100.0 	15.0 	108.0 	48.0 	115.0 	70.0 	54.0 	32.0 
55.0 	129.0 	68.0 	23.0 	69.0 	36.0 	94.0 	16.0 	38.0 	39.0 	42.0 	45.0 	51.0 	50.0 	39.0 	40.0 	51.0 	58.0 	32.0 	40.0 	31.0 	50.0 	34.0 	46.0 	42.0 	37.0 	38.0 	37.0 	47.0 	33.0 	34.0 	38.0 
35.0 	106.0 	54.0 	35.0 	63.0 	55.0 	91.0 	57.0 	39.0 	39.0 	36.0 	40.0 	36.0 	40.0 	40.0 	41.0 	34.0 	34.0 	35.0 	38.0 	36.0 	36.0 	34.0 	36.0 	37.0 	40.0 	37.0 	40.0 	36.0 	40.0 	37.0 	42.0 
34.0 	76.0 	38.0 	38.0 	40.0 	36.0 	84.0 	41.0 	39.0 	40.0 	36.0 	40.0 	38.0 	41.0 	40.0 	41.0 	35.0 	35.0 	36.0 	37.0 	36.0 	36.0 	34.0 	37.0 	37.0 	40.0 	37.0 	41.0 	37.0 	40.0 	37.0 	42.0 
33.0 	48.0 	34.0 	37.0 	34.0 	37.0 	38.0 	36.0 	39.0 	39.0 	35.0 	40.0 	37.0 	40.0 	40.0 	40.0 	34.0 	35.0 	35.0 	37.0 	35.0 	35.0 	33.0 	36.0 	37.0 	40.0 	36.0 	40.0 	36.0 	39.0 	36.0 	41.0 
32.0 	34.0 	33.0 	35.0 	33.0 	36.0 	33.0 	35.0 	38.0 	38.0 	34.0 	38.0 	35.0 	39.0 	39.0 	39.0 	33.0 	33.0 	34.0 	35.0 	34.0 	34.0 	32.0 	35.0 	36.0 	39.0 	35.0 	38.0 	35.0 	38.0 	35.0 	39.0 
30.0 	33.0 	30.0 	33.0 	30.0 	33.0 	31.0 	32.0 	35.0 	36.0 	32.0 	36.0 	33.0 	37.0 	36.0 	37.0 	31.0 	31.0 	31.0 	33.0 	31.0 	31.0 	30.0 	32.0 	33.0 	36.0 	32.0 	36.0 	32.0 	35.0 	32.0 	37.0 
26.0 	29.0 	27.0 	29.0 	27.0 	29.0 	27.0 	29.0 	31.0 	32.0 	28.0 	32.0 	29.0 	33.0 	32.0 	33.0 	27.0 	27.0 	28.0 	29.0 	28.0 	28.0 	26.0 	29.0 	29.0 	32.0 	29.0 	32.0 	29.0 	32.0 	29.0 	33.0 
25.0 	28.0 	26.0 	28.0 	26.0 	28.0 	26.0 	27.0 	30.0 	31.0 	27.0 	31.0 	28.0 	32.0 	32.0 	32.0 	26.0 	26.0 	26.0 	28.0 	27.0 	27.0 	25.0 	28.0 	28.0 	31.0 	28.0 	31.0 	27.0 	30.0 	28.0 	32.0 
23.0 	26.0 	24.0 	27.0 	24.0 	26.0 	24.0 	25.0 	29.0 	29.0 	26.0 	29.0 	26.0 	30.0 	30.0 	30.0 	24.0 	25.0 	25.0 	26.0 	25.0 	25.0 	23.0 	26.0 	26.0 	29.0 	26.0 	29.0 	26.0 	29.0 	26.0 	30.0 
32.0 	33.0 	31.0 	34.0 	31.0 	34.0 	31.0 	33.0 	38.0 	36.0 	36.0 	39.0 	36.0 	39.0 	38.0 	40.0 	32.0 	33.0 	32.0 	34.0 	33.0 	34.0 	31.0 	34.0 	34.0 	37.0 	34.0 	37.0 	33.0 	37.0 	34.0 	38.0 
26.0 	27.0 	25.0 	28.0 	26.0 	28.0 	25.0 	27.0 	35.0 	51.0 	29.0 	31.0 	29.0 	31.0 	33.0 	31.0 	26.0 	27.0 	26.0 	27.0 	27.0 	27.0 	26.0 	27.0 	27.0 	30.0 	27.0 	30.0 	27.0 	30.0 	28.0 	30.0 
15.0 	16.0 	15.0 	17.0 	15.0 	17.0 	15.0 	16.0 	71.0 	81.0 	15.0 	18.0 	16.0 	19.0 	56.0 	20.0 	16.0 	16.0 	16.0 	17.0 	16.0 	17.0 	15.0 	17.0 	17.0 	18.0 	17.0 	19.0 	17.0 	18.0 	17.0 	19.0 
8.0 	8.0 	8.0 	9.0 	8.0 	9.0 	8.0 	9.0 	100.0 	120.0 	38.0 	11.0 	20.0 	12.0 	85.0 	13.0 	8.0 	8.0 	8.0 	9.0 	7.0 	8.0 	8.0 	9.0 	9.0 	10.0 	8.0 	11.0 	8.0 	10.0 	9.0 	11.0 
36.0 	8.0 	6.0 	11.0 	6.0 	7.0 	7.0 	7.0 	126.0 	101.0 	77.0 	32.0 	68.0 	7.0 	127.0 	70.0 	7.0 	11.0 	7.0 	10.0 	16.0 	18.0 	9.0 	10.0 	8.0 	9.0 	8.0 	9.0 	7.0 	10.0 	10.0 	10.0 
73.0 	30.0 	48.0 	66.0 	47.0 	43.0 	28.0 	39.0 	103.0 	95.0 	122.0 	132.0 	113.0 	87.0 	100.0 	127.0 	21.0 	25.0 	50.0 	21.0 	62.0 	23.0 	39.0 	14.0 	30.0 	38.0 	33.0 	36.0 	32.0 	30.0 	55.0 	35.0 
81.0 	42.0 	111.0 	112.0 	107.0 	95.0 	57.0 	87.0 	99.0 	86.0 	135.0 	139.0 	136.0 	141.0 	91.0 	113.0 	49.0 	50.0 	94.0 	12.0 	96.0 	7.0 	93.0 	10.0 	80.0 	114.0 	106.0 	122.0 	98.0 	83.0 	123.0 	105.0 
89.0 	84.0 	124.0 	109.0 	125.0 	95.0 	96.0 	104.0 	82.0 	81.0 	130.0 	109.0 	133.0 	111.0 	72.0 	93.0 	83.0 	52.0 	105.0 	11.0 	97.0 	20.0 	96.0 	10.0 	130.0 	134.0 	126.0 	128.0 	129.0 	137.0 	129.0 	140.0 
100.0 	91.0 	130.0 	135.0 	129.0 	127.0 	95.0 	97.0 	83.0 	71.0 	114.0 	94.0 	124.0 	104.0 	76.0 	84.0 	97.0 	118.0 	100.0 	84.0 	101.0 	73.0 	102.0 	66.0 	120.0 	130.0 	127.0 	134.0 	129.0 	137.0 	124.0 	140.0 
104.0 	75.0 	133.0 	134.0 	132.0 	130.0 	109.0 	129.0 	62.0 	46.0 	96.0 	78.0 	100.0 	76.0 	74.0 	69.0 	104.0 	88.0 	101.0 	17.0 	103.0 	7.0 	103.0 	8.0 	126.0 	132.0 	123.0 	134.0 	130.0 	137.0 	128.0 	136.0 
108.0 	91.0 	116.0 	32.0 	115.0 	20.0 	113.0 	114.0 	42.0 	30.0 	62.0 	63.0 	68.0 	63.0 	43.0 	62.0 	106.0 	63.0 	98.0 	8.0 	73.0 	10.0 	80.0 	10.0 	126.0 	77.0 	123.0 	93.0 	121.0 	120.0 	76.0 	80.0 
72.0 	70.0 	100.0 	33.0 	84.0 	14.0 	97.0 	8.0 	31.0 	31.0 	40.0 	45.0 	53.0 	41.0 	31.0 	37.0 	48.0 	37.0 	44.0 	31.0 	35.0 	49.0 	28.0 	28.0 	58.0 	30.0 	42.0 	29.0 	52.0 	39.0 	27.0 	30.0 
32.0 	45.0 	65.0 	38.0 	51.0 	23.0 	70.0 	18.0 	32.0 	32.0 	30.0 	32.0 	31.0 	34.0 	33.0 	33.0 	28.0 	30.0 	28.0 	32.0 	29.0 	32.0 	29.0 	32.0 	29.0 	33.0 	29.0 	33.0 	30.0 	32.0 	30.0 	34.0 
29.0 	69.0 	27.0 	30.0 	29.0 	26.0 	55.0 	27.0 	34.0 	34.0 	33.0 	35.0 	32.0 	36.0 	35.0 	36.0 	31.0 	32.0 	31.0 	33.0 	31.0 	33.0 	30.0 	33.0 	33.0 	35.0 	32.0 	35.0 	32.0 	35.0 	32.0 	36.0 
31.0 	50.0 	30.0 	34.0 	31.0 	34.0 	36.0 	34.0 	35.0 	35.0 	33.0 	36.0 	33.0 	37.0 	36.0 	37.0 	32.0 	33.0 	31.0 	33.0 	32.0 	34.0 	31.0 	34.0 	33.0 	36.0 	33.0 	36.0 	33.0 	36.0 	33.0 	37.0 
27.0 	29.0 	27.0 	30.0 	27.0 	30.0 	28.0 	29.0 	32.0 	31.0 	30.0 	32.0 	29.0 	33.0 	32.0 	33.0 	28.0 	29.0 	28.0 	29.0 	28.0 	30.0 	27.0 	30.0 	30.0 	32.0 	29.0 	32.0 	29.0 	32.0 	29.0 	33.0 
21.0 	24.0 	21.0 	24.0 	21.0 	24.0 	22.0 	23.0 	25.0 	25.0 	23.0 	26.0 	23.0 	26.0 	25.0 	27.0 	22.0 	23.0 	22.0 	23.0 	22.0 	24.0 	21.0 	23.0 	23.0 	26.0 	23.0 	26.0 	22.0 	26.0 	23.0 	26.0 
32.0 	36.0 	32.0 	35.0 	32.0 	35.0 	32.0 	34.0 	38.0 	37.0 	35.0 	38.0 	35.0 	39.0 	38.0 	39.0 	33.0 	34.0 	33.0 	35.0 	33.0 	35.0 	32.0 	35.0 	35.0 	38.0 	34.0 	38.0 	34.0 	38.0 	34.0 	38.0 
32.0 	36.0 	32.0 	35.0 	32.0 	36.0 	33.0 	34.0 	39.0 	38.0 	36.0 	39.0 	36.0 	40.0 	39.0 	40.0 	34.0 	35.0 	33.0 	36.0 	34.0 	36.0 	33.0 	36.0 	36.0 	38.0 	35.0 	39.0 	35.0 	39.0 	35.0 	39.0 
31.0 	35.0 	31.0 	34.0 	31.0 	35.0 	32.0 	33.0 	38.0 	37.0 	35.0 	38.0 	34.0 	39.0 	38.0 	39.0 	33.0 	33.0 	32.0 	35.0 	33.0 	35.0 	32.0 	34.0 	34.0 	38.0 	34.0 	37.0 	34.0 	37.0 	34.0 	38.0 
7.0 	7.0 	7.0 	8.0 	7.0 	8.0 	7.0 	8.0 	10.0 	9.0 	9.0 	10.0 	9.0 	10.0 	10.0 	10.0 	7.0 	9.0 	7.0 	8.0 	8.0 	8.0 	7.0 	8.0 	8.0 	9.0 	8.0 	10.0 	8.0 	10.0 	8.0 	10.0 
7.0 	8.0 	7.0 	8.0 	7.0 	8.0 	7.0 	8.0 	12.0 	27.0 	9.0 	9.0 	9.0 	10.0 	10.0 	8.0 	8.0 	8.0 	7.0 	8.0 	8.0 	8.0 	7.0 	8.0 	8.0 	9.0 	8.0 	9.0 	8.0 	9.0 	8.0 	10.0 
11.0 	11.0 	11.0 	12.0 	11.0 	12.0 	10.0 	11.0 	51.0 	38.0 	10.0 	17.0 	9.0 	11.0 	36.0 	26.0 	11.0 	12.0 	11.0 	12.0 	11.0 	12.0 	11.0 	12.0 	12.0 	13.0 	12.0 	13.0 	12.0 	14.0 	12.0 	13.0 
2.0 	3.0 	3.0 	3.0 	3.0 	4.0 	3.0 	4.0 	71.0 	73.0 	82.0 	69.0 	59.0 	39.0 	72.0 	38.0 	3.0 	3.0 	3.0 	3.0 	2.0 	3.0 	2.0 	3.0 	4.0 	5.0 	4.0 	5.0 	4.0 	4.0 	3.0 	5.0 
32.0 	5.0 	3.0 	11.0 	3.0 	3.0 	4.0 	3.0 	105.0 	110.0 	113.0 	88.0 	119.0 	65.0 	118.0 	104.0 	6.0 	14.0 	7.0 	8.0 	24.0 	17.0 	15.0 	9.0 	4.0 	6.0 	4.0 	5.0 	3.0 	6.0 	17.0 	5.0 
99.0 	19.0 	48.0 	68.0 	47.0 	45.0 	21.0 	40.0 	116.0 	106.0 	137.0 	147.0 	132.0 	116.0 	117.0 	150.0 	39.0 	43.0 	64.0 	57.0 	88.0 	51.0 	75.0 	53.0 	30.0 	45.0 	53.0 	43.0 	48.0 	27.0 	68.0 	40.0 
102.0 	42.0 	105.0 	119.0 	100.0 	102.0 	58.0 	88.0 	115.0 	110.0 	137.0 	143.0 	139.0 	146.0 	112.0 	129.0 	70.0 	25.0 	112.0 	70.0 	126.0 	52.0 	121.0 	22.0 	92.0 	124.0 	112.0 	123.0 	106.0 	88.0 	123.0 	108.0 
126.0 	91.0 	130.0 	130.0 	127.0 	119.0 	102.0 	130.0 	100.0 	93.0 	138.0 	118.0 	139.0 	119.0 	92.0 	105.0 	81.0 	5.0 	120.0 	80.0 	108.0 	81.0 	112.0 	42.0 	132.0 	137.0 	126.0 	135.0 	123.0 	137.0 	137.0 	143.0 
128.0 	114.0 	130.0 	136.0 	131.0 	134.0 	128.0 	136.0 	90.0 	76.0 	126.0 	104.0 	133.0 	108.0 	83.0 	99.0 	83.0 	59.0 	106.0 	110.0 	112.0 	109.0 	109.0 	106.0 	131.0 	140.0 	129.0 	143.0 	128.0 	143.0 	135.0 	144.0 
113.0 	109.0 	131.0 	137.0 	130.0 	137.0 	132.0 	135.0 	53.0 	37.0 	104.0 	88.0 	105.0 	90.0 	57.0 	73.0 	80.0 	30.0 	117.0 	84.0 	128.0 	64.0 	122.0 	35.0 	131.0 	139.0 	127.0 	137.0 	128.0 	142.0 	131.0 	142.0 
111.0 	122.0 	126.0 	113.0 	127.0 	91.0 	131.0 	128.0 	37.0 	37.0 	63.0 	55.0 	71.0 	69.0 	51.0 	48.0 	79.0 	19.0 	120.0 	60.0 	99.0 	51.0 	111.0 	21.0 	130.0 	102.0 	122.0 	101.0 	123.0 	122.0 	89.0 	97.0 
85.0 	109.0 	120.0 	107.0 	122.0 	92.0 	124.0 	56.0 	36.0 	36.0 	35.0 	47.0 	48.0 	32.0 	35.0 	44.0 	40.0 	18.0 	68.0 	44.0 	49.0 	62.0 	51.0 	36.0 	65.0 	37.0 	62.0 	36.0 	84.0 	48.0 	33.0 	36.0 
39.0 	19.0 	89.0 	86.0 	93.0 	81.0 	105.0 	91.0 	40.0 	40.0 	37.0 	39.0 	40.0 	41.0 	39.0 	39.0 	33.0 	40.0 	35.0 	39.0 	33.0 	39.0 	34.0 	38.0 	36.0 	40.0 	35.0 	40.0 	37.0 	39.0 	37.0 	40.0 
34.0 	6.0 	34.0 	35.0 	33.0 	30.0 	78.0 	53.0 	41.0 	42.0 	38.0 	41.0 	38.0 	42.0 	41.0 	41.0 	38.0 	39.0 	36.0 	39.0 	36.0 	38.0 	36.0 	39.0 	38.0 	41.0 	39.0 	42.0 	38.0 	42.0 	39.0 	42.0 
36.0 	28.0 	37.0 	39.0 	37.0 	40.0 	34.0 	37.0 	42.0 	43.0 	39.0 	42.0 	39.0 	43.0 	42.0 	42.0 	38.0 	40.0 	37.0 	40.0 	37.0 	39.0 	36.0 	40.0 	39.0 	43.0 	39.0 	43.0 	39.0 	43.0 	40.0 	43.0 
32.0 	36.0 	33.0 	35.0 	33.0 	36.0 	34.0 	34.0 	38.0 	39.0 	35.0 	38.0 	35.0 	39.0 	38.0 	38.0 	34.0 	36.0 	33.0 	35.0 	33.0 	35.0 	33.0 	36.0 	35.0 	38.0 	35.0 	38.0 	35.0 	39.0 	35.0 	39.0 
23.0 	26.0 	24.0 	26.0 	24.0 	26.0 	25.0 	25.0 	29.0 	29.0 	26.0 	28.0 	26.0 	29.0 	28.0 	28.0 	25.0 	27.0 	24.0 	26.0 	24.0 	26.0 	24.0 	27.0 	26.0 	28.0 	26.0 	28.0 	26.0 	29.0 	26.0 	29.0 
33.0 	37.0 	35.0 	37.0 	34.0 	37.0 	35.0 	36.0 	41.0 	42.0 	36.0 	40.0 	37.0 	41.0 	40.0 	40.0 	36.0 	38.0 	35.0 	38.0 	35.0 	37.0 	34.0 	38.0 	37.0 	40.0 	37.0 	40.0 	37.0 	41.0 	37.0 	41.0 
33.0 	36.0 	34.0 	36.0 	33.0 	37.0 	34.0 	35.0 	40.0 	41.0 	36.0 	40.0 	36.0 	40.0 	40.0 	40.0 	35.0 	37.0 	33.0 	37.0 	33.0 	36.0 	34.0 	37.0 	36.0 	40.0 	36.0 	40.0 	36.0 	40.0 	37.0 	40.0 
32.0 	35.0 	32.0 	35.0 	31.0 	35.0 	33.0 	34.0 	39.0 	40.0 	34.0 	39.0 	34.0 	39.0 	39.0 	39.0 	34.0 	36.0 	31.0 	35.0 	31.0 	34.0 	32.0 	36.0 	35.0 	39.0 	35.0 	38.0 	34.0 	39.0 	36.0 	39.0 
11.0 	11.0 	11.0 	12.0 	11.0 	12.0 	10.0 	12.0 	16.0 	16.0 	13.0 	15.0 	13.0 	15.0 	15.0 	15.0 	11.0 	12.0 	11.0 	12.0 	12.0 	12.0 	11.0 	12.0 	12.0 	13.0 	12.0 	14.0 	12.0 	14.0 	12.0 	14.0 
23.0 	23.0 	23.0 	25.0 	23.0 	24.0 	22.0 	24.0 	27.0 	25.0 	25.0 	27.0 	25.0 	28.0 	27.0 	25.0 	23.0 	25.0 	23.0 	24.0 	23.0 	24.0 	23.0 	25.0 	24.0 	26.0 	24.0 	27.0 	24.0 	27.0 	24.0 	27.0 
42.0 	42.0 	41.0 	44.0 	41.0 	44.0 	40.0 	43.0 	56.0 	16.0 	44.0 	52.0 	44.0 	46.0 	74.0 	73.0 	41.0 	44.0 	41.0 	44.0 	42.0 	43.0 	41.0 	44.0 	44.0 	47.0 	44.0 	48.0 	43.0 	48.0 	44.0 	48.0 
26.0 	30.0 	29.0 	31.0 	29.0 	31.0 	28.0 	31.0 	86.0 	96.0 	49.0 	87.0 	50.0 	71.0 	109.0 	107.0 	29.0 	30.0 	28.0 	30.0 	28.0 	30.0 	28.0 	30.0 	30.0 	33.0 	31.0 	34.0 	31.0 	34.0 	29.0 	34.0 
60.0 	26.0 	25.0 	31.0 	24.0 	25.0 	24.0 	26.0 	142.0 	132.0 	91.0 	119.0 	99.0 	117.0 	147.0 	137.0 	26.0 	36.0 	28.0 	30.0 	33.0 	34.0 	36.0 	32.0 	25.0 	30.0 	25.0 	30.0 	26.0 	28.0 	44.0 	29.0 
127.0 	28.0 	52.0 	69.0 	50.0 	50.0 	29.0 	47.0 	135.0 	103.0 	126.0 	146.0 	131.0 	141.0 	142.0 	145.0 	57.0 	78.0 	49.0 	67.0 	65.0 	57.0 	75.0 	79.0 	52.0 	70.0 	62.0 	75.0 	43.0 	50.0 	93.0 	72.0 
123.0 	47.0 	90.0 	100.0 	86.0 	94.0 	61.0 	83.0 	112.0 	109.0 	139.0 	142.0 	140.0 	144.0 	118.0 	131.0 	104.0 	14.0 	96.0 	117.0 	122.0 	119.0 	117.0 	108.0 	103.0 	117.0 	91.0 	109.0 	72.0 	95.0 	113.0 	103.0 
132.0 	89.0 	109.0 	123.0 	109.0 	114.0 	97.0 	118.0 	104.0 	97.0 	138.0 	119.0 	139.0 	119.0 	100.0 	108.0 	120.0 	7.0 	103.0 	115.0 	114.0 	128.0 	119.0 	125.0 	121.0 	133.0 	108.0 	134.0 	98.0 	124.0 	128.0 	134.0 
131.0 	126.0 	123.0 	134.0 	126.0 	132.0 	122.0 	133.0 	92.0 	74.0 	108.0 	103.0 	115.0 	104.0 	86.0 	103.0 	106.0 	93.0 	104.0 	115.0 	115.0 	117.0 	109.0 	113.0 	130.0 	140.0 	122.0 	143.0 	118.0 	142.0 	132.0 	143.0 
118.0 	135.0 	132.0 	136.0 	132.0 	136.0 	129.0 	134.0 	43.0 	26.0 	98.0 	93.0 	94.0 	96.0 	40.0 	75.0 	110.0 	35.0 	105.0 	116.0 	129.0 	138.0 	130.0 	129.0 	131.0 	137.0 	120.0 	139.0 	115.0 	140.0 	126.0 	140.0 
113.0 	135.0 	119.0 	124.0 	126.0 	136.0 	129.0 	135.0 	30.0 	36.0 	64.0 	50.0 	71.0 	74.0 	39.0 	34.0 	118.0 	0.0 	108.0 	116.0 	84.0 	102.0 	110.0 	103.0 	127.0 	105.0 	109.0 	102.0 	99.0 	117.0 	95.0 	98.0 
94.0 	127.0 	109.0 	115.0 	119.0 	130.0 	128.0 	131.0 	40.0 	40.0 	28.0 	38.0 	32.0 	23.0 	40.0 	43.0 	52.0 	23.0 	71.0 	59.0 	49.0 	80.0 	67.0 	49.0 	82.0 	46.0 	73.0 	43.0 	68.0 	67.0 	43.0 	40.0 
44.0 	26.0 	59.0 	59.0 	71.0 	77.0 	124.0 	118.0 	41.0 	42.0 	38.0 	42.0 	40.0 	40.0 	41.0 	41.0 	33.0 	41.0 	42.0 	42.0 	35.0 	42.0 	39.0 	40.0 	43.0 	40.0 	37.0 	42.0 	39.0 	40.0 	38.0 	41.0 
36.0 	54.0 	36.0 	38.0 	36.0 	36.0 	102.0 	55.0 	42.0 	43.0 	39.0 	42.0 	40.0 	43.0 	42.0 	42.0 	38.0 	39.0 	36.0 	39.0 	37.0 	38.0 	37.0 	40.0 	38.0 	41.0 	40.0 	43.0 	40.0 	43.0 	39.0 	43.0 
36.0 	43.0 	37.0 	39.0 	37.0 	39.0 	38.0 	37.0 	42.0 	42.0 	38.0 	42.0 	39.0 	43.0 	42.0 	42.0 	37.0 	39.0 	37.0 	39.0 	37.0 	38.0 	36.0 	39.0 	39.0 	41.0 	39.0 	43.0 	39.0 	43.0 	39.0 	43.0 
36.0 	38.0 	37.0 	39.0 	37.0 	39.0 	36.0 	39.0 	42.0 	43.0 	38.0 	42.0 	39.0 	43.0 	42.0 	42.0 	37.0 	39.0 	36.0 	39.0 	37.0 	38.0 	37.0 	39.0 	39.0 	41.0 	39.0 	43.0 	39.0 	42.0 	39.0 	42.0 
35.0 	37.0 	35.0 	37.0 	35.0 	37.0 	35.0 	37.0 	41.0 	41.0 	36.0 	40.0 	37.0 	41.0 	40.0 	40.0 	35.0 	37.0 	35.0 	37.0 	35.0 	37.0 	35.0 	38.0 	37.0 	39.0 	38.0 	41.0 	37.0 	40.0 	37.0 	40.0 
34.0 	37.0 	34.0 	37.0 	34.0 	37.0 	35.0 	37.0 	41.0 	41.0 	35.0 	39.0 	35.0 	40.0 	40.0 	39.0 	35.0 	37.0 	34.0 	37.0 	34.0 	36.0 	34.0 	37.0 	37.0 	39.0 	37.0 	40.0 	37.0 	40.0 	36.0 	41.0 
33.0 	36.0 	32.0 	35.0 	32.0 	35.0 	34.0 	35.0 	39.0 	40.0 	32.0 	37.0 	32.0 	37.0 	39.0 	38.0 	34.0 	36.0 	31.0 	35.0 	30.0 	33.0 	32.0 	36.0 	36.0 	38.0 	35.0 	39.0 	34.0 	39.0 	36.0 	39.0 
31.0 	34.0 	28.0 	33.0 	28.0 	32.0 	32.0 	33.0 	38.0 	39.0 	29.0 	35.0 	29.0 	35.0 	38.0 	37.0 	32.0 	34.0 	27.0 	32.0 	27.0 	30.0 	30.0 	33.0 	35.0 	37.0 	32.0 	38.0 	30.0 	38.0 	34.0 	38.0 
35.0 	36.0 	35.0 	38.0 	35.0 	37.0 	34.0 	37.0 	43.0 	41.0 	39.0 	43.0 	38.0 	43.0 	41.0 	43.0 	35.0 	37.0 	35.0 	38.0 	36.0 	37.0 	34.0 	37.0 	37.0 	40.0 	38.0 	41.0 	37.0 	41.0 	38.0 	41.0 
34.0 	33.0 	33.0 	36.0 	33.0 	35.0 	32.0 	35.0 	40.0 	59.0 	36.0 	40.0 	36.0 	40.0 	48.0 	39.0 	32.0 	35.0 	33.0 	35.0 	34.0 	34.0 	32.0 	35.0 	35.0 	38.0 	35.0 	38.0 	35.0 	38.0 	35.0 	39.0 
21.0 	20.0 	20.0 	22.0 	20.0 	21.0 	19.0 	21.0 	83.0 	42.0 	22.0 	22.0 	22.0 	24.0 	97.0 	25.0 	20.0 	21.0 	20.0 	21.0 	20.0 	21.0 	19.0 	21.0 	21.0 	23.0 	22.0 	24.0 	21.0 	24.0 	22.0 	24.0 
24.0 	26.0 	25.0 	27.0 	25.0 	27.0 	25.0 	27.0 	122.0 	111.0 	23.0 	39.0 	23.0 	27.0 	125.0 	96.0 	24.0 	25.0 	24.0 	26.0 	24.0 	25.0 	23.0 	26.0 	27.0 	28.0 	27.0 	29.0 	27.0 	30.0 	25.0 	29.0 
39.0 	24.0 	26.0 	34.0 	26.0 	26.0 	23.0 	26.0 	148.0 	134.0 	89.0 	107.0 	78.0 	85.0 	146.0 	141.0 	34.0 	40.0 	32.0 	35.0 	34.0 	42.0 	39.0 	37.0 	24.0 	32.0 	27.0 	31.0 	26.0 	27.0 	45.0 	31.0 
106.0 	23.0 	45.0 	64.0 	47.0 	43.0 	25.0 	41.0 	136.0 	102.0 	126.0 	144.0 	129.0 	136.0 	140.0 	147.0 	49.0 	71.0 	38.0 	45.0 	38.0 	42.0 	46.0 	53.0 	39.0 	76.0 	28.0 	60.0 	28.0 	33.0 	66.0 	68.0 
124.0 	50.0 	83.0 	96.0 	82.0 	84.0 	57.0 	77.0 	112.0 	105.0 	138.0 	143.0 	140.0 	145.0 	117.0 	127.0 	88.0 	90.0 	83.0 	110.0 	103.0 	100.0 	101.0 	103.0 	70.0 	92.0 	53.0 	86.0 	37.0 	64.0 	87.0 	87.0 
132.0 	85.0 	105.0 	111.0 	106.0 	100.0 	93.0 	111.0 	100.0 	95.0 	125.0 	110.0 	129.0 	111.0 	99.0 	96.0 	130.0 	112.0 	115.0 	117.0 	109.0 	116.0 	112.0 	123.0 	93.0 	118.0 	102.0 	130.0 	92.0 	113.0 	109.0 	127.0 
133.0 	106.0 	105.0 	116.0 	111.0 	120.0 	107.0 	121.0 	92.0 	72.0 	86.0 	95.0 	92.0 	98.0 	85.0 	101.0 	105.0 	108.0 	116.0 	124.0 	112.0 	114.0 	108.0 	111.0 	117.0 	136.0 	126.0 	144.0 	119.0 	143.0 	126.0 	145.0 
108.0 	128.0 	130.0 	137.0 	132.0 	138.0 	122.0 	133.0 	35.0 	17.0 	95.0 	96.0 	97.0 	92.0 	28.0 	75.0 	117.0 	110.0 	119.0 	122.0 	125.0 	130.0 	123.0 	130.0 	117.0 	124.0 	124.0 	132.0 	119.0 	137.0 	112.0 	131.0 
99.0 	134.0 	131.0 	133.0 	128.0 	131.0 	131.0 	135.0 	22.0 	28.0 	60.0 	44.0 	67.0 	72.0 	25.0 	20.0 	125.0 	80.0 	106.0 	114.0 	64.0 	93.0 	97.0 	108.0 	112.0 	103.0 	79.0 	85.0 	85.0 	99.0 	87.0 	89.0 
97.0 	134.0 	114.0 	117.0 	107.0 	115.0 	127.0 	132.0 	39.0 	41.0 	16.0 	23.0 	15.0 	18.0 	39.0 	32.0 	56.0 	37.0 	55.0 	62.0 	43.0 	80.0 	64.0 	59.0 	94.0 	56.0 	36.0 	46.0 	38.0 	65.0 	44.0 	46.0 
42.0 	106.0 	44.0 	44.0 	42.0 	54.0 	121.0 	92.0 	38.0 	38.0 	33.0 	40.0 	29.0 	36.0 	38.0 	40.0 	36.0 	38.0 	39.0 	42.0 	33.0 	44.0 	41.0 	40.0 	42.0 	37.0 	37.0 	38.0 	38.0 	37.0 	35.0 	38.0 
26.0 	109.0 	26.0 	28.0 	26.0 	28.0 	62.0 	28.0 	30.0 	31.0 	28.0 	31.0 	29.0 	32.0 	30.0 	31.0 	27.0 	27.0 	26.0 	28.0 	26.0 	27.0 	25.0 	27.0 	28.0 	31.0 	29.0 	32.0 	29.0 	31.0 	28.0 	32.0 
31.0 	57.0 	32.0 	34.0 	31.0 	33.0 	29.0 	34.0 	35.0 	36.0 	32.0 	36.0 	33.0 	37.0 	35.0 	36.0 	30.0 	32.0 	31.0 	33.0 	31.0 	33.0 	30.0 	32.0 	33.0 	36.0 	34.0 	36.0 	33.0 	36.0 	33.0 	36.0 
24.0 	23.0 	24.0 	26.0 	24.0 	26.0 	24.0 	26.0 	27.0 	28.0 	25.0 	28.0 	25.0 	29.0 	27.0 	28.0 	23.0 	25.0 	23.0 	25.0 	23.0 	25.0 	23.0 	25.0 	25.0 	28.0 	26.0 	28.0 	26.0 	28.0 	25.0 	28.0 
34.0 	36.0 	35.0 	37.0 	34.0 	37.0 	35.0 	37.0 	39.0 	39.0 	34.0 	38.0 	34.0 	40.0 	38.0 	38.0 	34.0 	36.0 	34.0 	36.0 	34.0 	35.0 	33.0 	36.0 	36.0 	39.0 	37.0 	40.0 	37.0 	40.0 	36.0 	40.0 
33.0 	36.0 	33.0 	35.0 	33.0 	36.0 	35.0 	36.0 	37.0 	38.0 	30.0 	36.0 	31.0 	37.0 	36.0 	36.0 	34.0 	35.0 	32.0 	35.0 	30.0 	34.0 	32.0 	35.0 	36.0 	39.0 	36.0 	39.0 	35.0 	39.0 	35.0 	39.0 
30.0 	35.0 	29.0 	31.0 	28.0 	32.0 	33.0 	33.0 	34.0 	36.0 	26.0 	32.0 	25.0 	32.0 	34.0 	33.0 	31.0 	33.0 	26.0 	30.0 	25.0 	28.0 	28.0 	31.0 	34.0 	36.0 	31.0 	35.0 	30.0 	36.0 	32.0 	36.0 
27.0 	33.0 	24.0 	28.0 	23.0 	28.0 	30.0 	29.0 	33.0 	35.0 	24.0 	30.0 	24.0 	30.0 	33.0 	32.0 	27.0 	30.0 	22.0 	27.0 	21.0 	24.0 	24.0 	27.0 	31.0 	34.0 	27.0 	33.0 	25.0 	33.0 	29.0 	34.0 
28.0 	29.0 	27.0 	29.0 	27.0 	30.0 	27.0 	29.0 	35.0 	33.0 	31.0 	35.0 	31.0 	35.0 	35.0 	35.0 	28.0 	30.0 	28.0 	31.0 	29.0 	30.0 	27.0 	30.0 	30.0 	33.0 	30.0 	33.0 	29.0 	33.0 	30.0 	34.0 
19.0 	19.0 	18.0 	20.0 	18.0 	20.0 	18.0 	19.0 	23.0 	42.0 	20.0 	23.0 	20.0 	23.0 	21.0 	22.0 	18.0 	20.0 	19.0 	20.0 	19.0 	19.0 	18.0 	20.0 	20.0 	22.0 	20.0 	22.0 	20.0 	22.0 	20.0 	22.0 
7.0 	7.0 	7.0 	7.0 	7.0 	7.0 	6.0 	7.0 	41.0 	84.0 	7.0 	6.0 	8.0 	9.0 	41.0 	8.0 	7.0 	7.0 	7.0 	8.0 	7.0 	7.0 	6.0 	7.0 	8.0 	9.0 	7.0 	9.0 	8.0 	9.0 	7.0 	9.0 
7.0 	7.0 	7.0 	6.0 	7.0 	8.0 	7.0 	7.0 	98.0 	135.0 	9.0 	34.0 	4.0 	4.0 	121.0 	94.0 	5.0 	5.0 	6.0 	6.0 	6.0 	5.0 	5.0 	6.0 	8.0 	8.0 	7.0 	8.0 	8.0 	9.0 	6.0 	8.0 
15.0 	13.0 	18.0 	26.0 	19.0 	15.0 	12.0 	16.0 	144.0 	134.0 	100.0 	133.0 	79.0 	88.0 	148.0 	143.0 	33.0 	41.0 	29.0 	34.0 	35.0 	38.0 	38.0 	37.0 	14.0 	22.0 	16.0 	22.0 	15.0 	15.0 	35.0 	22.0 
76.0 	12.0 	45.0 	59.0 	51.0 	41.0 	19.0 	37.0 	138.0 	101.0 	132.0 	138.0 	124.0 	144.0 	138.0 	141.0 	49.0 	49.0 	56.0 	40.0 	36.0 	40.0 	35.0 	38.0 	20.0 	31.0 	30.0 	28.0 	36.0 	18.0 	35.0 	30.0 
127.0 	49.0 	81.0 	92.0 	84.0 	84.0 	59.0 	76.0 	109.0 	104.0 	120.0 	126.0 	116.0 	130.0 	107.0 	118.0 	68.0 	96.0 	42.0 	63.0 	77.0 	67.0 	77.0 	75.0 	42.0 	78.0 	52.0 	83.0 	44.0 	51.0 	86.0 	84.0 
133.0 	85.0 	103.0 	115.0 	104.0 	102.0 	94.0 	113.0 	99.0 	93.0 	118.0 	106.0 	123.0 	99.0 	97.0 	92.0 	122.0 	128.0 	107.0 	126.0 	124.0 	125.0 	125.0 	131.0 	98.0 	124.0 	111.0 	129.0 	103.0 	117.0 	118.0 	128.0 
132.0 	105.0 	103.0 	106.0 	104.0 	102.0 	110.0 	121.0 	90.0 	71.0 	84.0 	100.0 	91.0 	98.0 	81.0 	102.0 	114.0 	116.0 	132.0 	139.0 	132.0 	135.0 	129.0 	135.0 	125.0 	142.0 	135.0 	144.0 	131.0 	143.0 	133.0 	145.0 
93.0 	117.0 	105.0 	122.0 	106.0 	124.0 	110.0 	120.0 	33.0 	12.0 	98.0 	94.0 	100.0 	85.0 	21.0 	75.0 	120.0 	124.0 	124.0 	133.0 	107.0 	125.0 	127.0 	135.0 	125.0 	126.0 	134.0 	136.0 	134.0 	143.0 	111.0 	134.0 
93.0 	135.0 	126.0 	135.0 	130.0 	138.0 	130.0 	133.0 	18.0 	18.0 	60.0 	42.0 	68.0 	71.0 	17.0 	15.0 	116.0 	108.0 	75.0 	84.0 	51.0 	64.0 	73.0 	85.0 	94.0 	66.0 	94.0 	58.0 	104.0 	98.0 	42.0 	60.0 
101.0 	133.0 	120.0 	130.0 	121.0 	134.0 	131.0 	139.0 	40.0 	39.0 	11.0 	14.0 	12.0 	18.0 	38.0 	21.0 	62.0 	47.0 	53.0 	65.0 	41.0 	77.0 	63.0 	56.0 	46.0 	42.0 	42.0 	36.0 	50.0 	32.0 	37.0 	39.0 
36.0 	130.0 	39.0 	42.0 	32.0 	42.0 	122.0 	94.0 	29.0 	28.0 	18.0 	23.0 	18.0 	23.0 	28.0 	28.0 	50.0 	34.0 	29.0 	34.0 	24.0 	37.0 	36.0 	32.0 	31.0 	29.0 	28.0 	29.0 	28.0 	29.0 	27.0 	29.0 
2.0 	89.0 	2.0 	2.0 	2.0 	2.0 	31.0 	3.0 	3.0 	3.0 	3.0 	5.0 	7.0 	5.0 	3.0 	4.0 	2.0 	2.0 	2.0 	3.0 	2.0 	2.0 	1.0 	2.0 	4.0 	5.0 	3.0 	4.0 	4.0 	5.0 	3.0 	5.0 
22.0 	24.0 	23.0 	24.0 	23.0 	24.0 	20.0 	24.0 	26.0 	25.0 	23.0 	26.0 	23.0 	27.0 	25.0 	26.0 	22.0 	23.0 	23.0 	24.0 	23.0 	23.0 	21.0 	23.0 	25.0 	26.0 	24.0 	26.0 	25.0 	27.0 	23.0 	27.0 
10.0 	13.0 	10.0 	11.0 	11.0 	12.0 	12.0 	12.0 	12.0 	12.0 	10.0 	13.0 	11.0 	13.0 	12.0 	12.0 	10.0 	11.0 	11.0 	12.0 	10.0 	11.0 	9.0 	11.0 	12.0 	13.0 	11.0 	13.0 	12.0 	14.0 	11.0 	14.0 
26.0 	30.0 	27.0 	27.0 	26.0 	29.0 	28.0 	28.0 	28.0 	27.0 	25.0 	28.0 	25.0 	29.0 	27.0 	28.0 	26.0 	27.0 	27.0 	28.0 	26.0 	27.0 	25.0 	27.0 	29.0 	30.0 	27.0 	30.0 	28.0 	31.0 	27.0 	30.0 
32.0 	37.0 	32.0 	34.0 	32.0 	35.0 	35.0 	35.0 	33.0 	33.0 	27.0 	32.0 	27.0 	33.0 	32.0 	32.0 	34.0 	34.0 	31.0 	34.0 	29.0 	32.0 	31.0 	33.0 	37.0 	38.0 	33.0 	36.0 	33.0 	38.0 	33.0 	37.0 
27.0 	34.0 	25.0 	27.0 	25.0 	29.0 	31.0 	30.0 	29.0 	30.0 	22.0 	27.0 	22.0 	27.0 	28.0 	27.0 	29.0 	29.0 	24.0 	27.0 	23.0 	24.0 	24.0 	27.0 	32.0 	32.0 	26.0 	29.0 	26.0 	31.0 	27.0 	31.0 
22.0 	31.0 	20.0 	22.0 	20.0 	23.0 	26.0 	24.0 	28.0 	30.0 	21.0 	26.0 	21.0 	26.0 	27.0 	26.0 	23.0 	25.0 	20.0 	23.0 	20.0 	21.0 	20.0 	22.0 	27.0 	28.0 	22.0 	27.0 	22.0 	27.0 	24.0 	28.0 
14.0 	13.0 	11.0 	14.0 	11.0 	13.0 	11.0 	13.0 	17.0 	17.0 	15.0 	17.0 	14.0 	17.0 	17.0 	17.0 	14.0 	14.0 	13.0 	14.0 	14.0 	14.0 	13.0 	14.0 	14.0 	16.0 	13.0 	16.0 	12.0 	15.0 	15.0 	16.0 
20.0 	20.0 	19.0 	21.0 	19.0 	21.0 	18.0 	20.0 	25.0 	22.0 	22.0 	25.0 	22.0 	25.0 	23.0 	25.0 	20.0 	21.0 	20.0 	22.0 	21.0 	21.0 	20.0 	22.0 	22.0 	24.0 	22.0 	24.0 	20.0 	23.0 	22.0 	24.0 
30.0 	30.0 	29.0 	32.0 	30.0 	31.0 	29.0 	31.0 	33.0 	62.0 	32.0 	34.0 	32.0 	36.0 	51.0 	35.0 	30.0 	31.0 	30.0 	32.0 	31.0 	31.0 	29.0 	32.0 	32.0 	35.0 	32.0 	35.0 	31.0 	35.0 	32.0 	35.0 
34.0 	35.0 	33.0 	36.0 	33.0 	36.0 	33.0 	35.0 	93.0 	126.0 	38.0 	51.0 	36.0 	40.0 	120.0 	80.0 	33.0 	34.0 	34.0 	36.0 	34.0 	34.0 	32.0 	35.0 	37.0 	40.0 	36.0 	40.0 	35.0 	40.0 	35.0 	40.0 
31.0 	35.0 	37.0 	40.0 	39.0 	37.0 	33.0 	37.0 	133.0 	131.0 	50.0 	85.0 	42.0 	66.0 	143.0 	105.0 	48.0 	66.0 	43.0 	53.0 	51.0 	55.0 	55.0 	58.0 	38.0 	42.0 	39.0 	40.0 	36.0 	40.0 	49.0 	40.0 
80.0 	38.0 	54.0 	62.0 	63.0 	54.0 	42.0 	47.0 	129.0 	94.0 	62.0 	110.0 	48.0 	83.0 	122.0 	113.0 	62.0 	58.0 	87.0 	66.0 	66.0 	64.0 	53.0 	56.0 	50.0 	42.0 	43.0 	31.0 	49.0 	37.0 	38.0 	34.0 
135.0 	51.0 	87.0 	91.0 	91.0 	85.0 	63.0 	77.0 	99.0 	98.0 	101.0 	121.0 	63.0 	89.0 	91.0 	107.0 	50.0 	73.0 	55.0 	48.0 	65.0 	51.0 	46.0 	46.0 	52.0 	91.0 	59.0 	83.0 	53.0 	58.0 	98.0 	86.0 
124.0 	82.0 	98.0 	108.0 	104.0 	102.0 	90.0 	104.0 	93.0 	88.0 	137.0 	102.0 	129.0 	96.0 	89.0 	91.0 	115.0 	129.0 	80.0 	82.0 	83.0 	80.0 	84.0 	88.0 	114.0 	132.0 	121.0 	137.0 	116.0 	130.0 	126.0 	138.0 
109.0 	108.0 	129.0 	127.0 	129.0 	120.0 	109.0 	129.0 	89.0 	71.0 	115.0 	96.0 	120.0 	98.0 	81.0 	95.0 	117.0 	124.0 	85.0 	91.0 	87.0 	80.0 	92.0 	102.0 	136.0 	144.0 	137.0 	144.0 	133.0 	144.0 	138.0 	145.0 
103.0 	105.0 	108.0 	116.0 	98.0 	103.0 	107.0 	118.0 	39.0 	19.0 	98.0 	87.0 	98.0 	77.0 	27.0 	75.0 	121.0 	129.0 	95.0 	95.0 	93.0 	95.0 	90.0 	97.0 	137.0 	139.0 	140.0 	143.0 	140.0 	145.0 	131.0 	143.0 
85.0 	123.0 	59.0 	84.0 	51.0 	82.0 	96.0 	103.0 	18.0 	12.0 	61.0 	45.0 	71.0 	70.0 	18.0 	19.0 	100.0 	88.0 	78.0 	80.0 	62.0 	62.0 	61.0 	69.0 	116.0 	81.0 	96.0 	84.0 	89.0 	113.0 	67.0 	84.0 
93.0 	136.0 	39.0 	61.0 	51.0 	76.0 	113.0 	99.0 	32.0 	29.0 	17.0 	9.0 	20.0 	23.0 	32.0 	13.0 	65.0 	55.0 	54.0 	77.0 	40.0 	84.0 	66.0 	76.0 	48.0 	42.0 	37.0 	36.0 	37.0 	41.0 	38.0 	38.0 
40.0 	136.0 	26.0 	31.0 	27.0 	33.0 	115.0 	65.0 	28.0 	28.0 	14.0 	16.0 	12.0 	17.0 	28.0 	20.0 	74.0 	34.0 	26.0 	30.0 	34.0 	38.0 	36.0 	33.0 	31.0 	28.0 	28.0 	27.0 	23.0 	25.0 	26.0 	28.0 
2.0 	66.0 	0.0 	1.0 	0.0 	1.0 	23.0 	1.0 	2.0 	2.0 	3.0 	7.0 	11.0 	5.0 	1.0 	3.0 	1.0 	0.0 	1.0 	1.0 	6.0 	0.0 	0.0 	0.0 	2.0 	3.0 	2.0 	2.0 	1.0 	3.0 	1.0 	2.0 
22.0 	21.0 	22.0 	24.0 	23.0 	24.0 	20.0 	24.0 	26.0 	25.0 	23.0 	27.0 	24.0 	28.0 	25.0 	26.0 	22.0 	24.0 	22.0 	25.0 	23.0 	24.0 	22.0 	24.0 	25.0 	27.0 	24.0 	27.0 	23.0 	27.0 	24.0 	27.0 
9.0 	14.0 	9.0 	10.0 	9.0 	11.0 	12.0 	11.0 	11.0 	10.0 	10.0 	11.0 	9.0 	12.0 	11.0 	11.0 	10.0 	10.0 	10.0 	10.0 	10.0 	10.0 	9.0 	10.0 	11.0 	11.0 	10.0 	11.0 	10.0 	12.0 	10.0 	11.0 
13.0 	17.0 	12.0 	14.0 	13.0 	14.0 	14.0 	14.0 	13.0 	12.0 	11.0 	13.0 	11.0 	14.0 	12.0 	12.0 	14.0 	14.0 	13.0 	14.0 	13.0 	13.0 	12.0 	14.0 	14.0 	15.0 	14.0 	14.0 	13.0 	15.0 	13.0 	15.0 
28.0 	34.0 	27.0 	29.0 	28.0 	31.0 	31.0 	31.0 	27.0 	26.0 	22.0 	26.0 	22.0 	28.0 	25.0 	25.0 	30.0 	30.0 	27.0 	29.0 	25.0 	27.0 	27.0 	29.0 	32.0 	32.0 	28.0 	29.0 	27.0 	32.0 	27.0 	30.0 
24.0 	33.0 	22.0 	24.0 	23.0 	25.0 	29.0 	27.0 	25.0 	25.0 	21.0 	25.0 	21.0 	26.0 	25.0 	25.0 	27.0 	26.0 	22.0 	24.0 	22.0 	23.0 	22.0 	24.0 	29.0 	27.0 	23.0 	25.0 	22.0 	26.0 	23.0 	26.0 
18.0 	27.0 	17.0 	19.0 	18.0 	20.0 	22.0 	21.0 	24.0 	25.0 	19.0 	23.0 	19.0 	24.0 	24.0 	23.0 	20.0 	20.0 	19.0 	20.0 	19.0 	20.0 	18.0 	20.0 	22.0 	24.0 	20.0 	23.0 	19.0 	23.0 	20.0 	23.0 
13.0 	11.0 	11.0 	13.0 	10.0 	12.0 	10.0 	12.0 	17.0 	17.0 	14.0 	17.0 	14.0 	16.0 	17.0 	17.0 	13.0 	14.0 	12.0 	14.0 	13.0 	13.0 	13.0 	14.0 	14.0 	16.0 	12.0 	15.0 	11.0 	13.0 	15.0 	15.0 
24.0 	23.0 	23.0 	25.0 	22.0 	25.0 	22.0 	24.0 	30.0 	28.0 	26.0 	30.0 	27.0 	30.0 	29.0 	30.0 	24.0 	26.0 	24.0 	27.0 	25.0 	25.0 	24.0 	26.0 	26.0 	29.0 	26.0 	28.0 	24.0 	27.0 	27.0 	29.0 
7.0 	7.0 	7.0 	7.0 	7.0 	7.0 	7.0 	7.0 	7.0 	35.0 	8.0 	9.0 	8.0 	9.0 	17.0 	9.0 	7.0 	7.0 	7.0 	8.0 	7.0 	7.0 	7.0 	8.0 	8.0 	8.0 	8.0 	8.0 	7.0 	8.0 	7.0 	8.0 
28.0 	28.0 	27.0 	28.0 	27.0 	29.0 	27.0 	29.0 	98.0 	124.0 	30.0 	33.0 	31.0 	34.0 	91.0 	31.0 	26.0 	27.0 	27.0 	28.0 	27.0 	27.0 	25.0 	28.0 	30.0 	33.0 	30.0 	33.0 	29.0 	32.0 	30.0 	33.0 
11.0 	12.0 	30.0 	28.0 	35.0 	17.0 	11.0 	20.0 	125.0 	113.0 	12.0 	13.0 	13.0 	13.0 	98.0 	17.0 	33.0 	66.0 	26.0 	42.0 	46.0 	41.0 	47.0 	53.0 	16.0 	36.0 	22.0 	34.0 	19.0 	18.0 	50.0 	34.0 
38.0 	34.0 	62.0 	63.0 	68.0 	55.0 	43.0 	53.0 	88.0 	87.0 	24.0 	38.0 	29.0 	28.0 	107.0 	60.0 	89.0 	84.0 	96.0 	85.0 	89.0 	90.0 	86.0 	87.0 	55.0 	47.0 	50.0 	32.0 	59.0 	35.0 	49.0 	36.0 
50.0 	52.0 	87.0 	93.0 	88.0 	87.0 	66.0 	78.0 	87.0 	84.0 	52.0 	90.0 	32.0 	50.0 	91.0 	101.0 	51.0 	60.0 	69.0 	66.0 	82.0 	73.0 	58.0 	60.0 	63.0 	94.0 	62.0 	77.0 	58.0 	54.0 	102.0 	80.0 
67.0 	81.0 	86.0 	97.0 	92.0 	96.0 	92.0 	99.0 	83.0 	83.0 	119.0 	98.0 	101.0 	88.0 	83.0 	84.0 	88.0 	94.0 	107.0 	103.0 	117.0 	112.0 	93.0 	96.0 	121.0 	136.0 	122.0 	138.0 	119.0 	133.0 	130.0 	140.0 
120.0 	107.0 	126.0 	137.0 	125.0 	135.0 	103.0 	125.0 	88.0 	77.0 	110.0 	85.0 	106.0 	96.0 	91.0 	86.0 	108.0 	105.0 	121.0 	104.0 	129.0 	123.0 	98.0 	100.0 	137.0 	144.0 	133.0 	143.0 	130.0 	143.0 	139.0 	145.0 
121.0 	114.0 	126.0 	127.0 	121.0 	130.0 	131.0 	138.0 	61.0 	39.0 	93.0 	81.0 	95.0 	76.0 	63.0 	76.0 	109.0 	103.0 	130.0 	122.0 	114.0 	131.0 	114.0 	114.0 	139.0 	144.0 	141.0 	146.0 	136.0 	147.0 	140.0 	147.0 
77.0 	99.0 	63.0 	50.0 	38.0 	61.0 	104.0 	87.0 	37.0 	22.0 	68.0 	54.0 	75.0 	70.0 	39.0 	37.0 	77.0 	63.0 	94.0 	111.0 	84.0 	85.0 	80.0 	87.0 	122.0 	94.0 	85.0 	77.0 	82.0 	106.0 	75.0 	83.0 
83.0 	98.0 	19.0 	22.0 	16.0 	21.0 	38.0 	23.0 	32.0 	22.0 	29.0 	33.0 	45.0 	48.0 	33.0 	30.0 	64.0 	72.0 	66.0 	77.0 	38.0 	93.0 	70.0 	82.0 	53.0 	41.0 	32.0 	33.0 	47.0 	37.0 	31.0 	32.0 
48.0 	116.0 	25.0 	32.0 	25.0 	33.0 	32.0 	30.0 	28.0 	25.0 	22.0 	28.0 	10.0 	25.0 	29.0 	29.0 	74.0 	33.0 	29.0 	37.0 	34.0 	51.0 	41.0 	38.0 	37.0 	29.0 	35.0 	37.0 	25.0 	31.0 	34.0 	37.0 
10.0 	49.0 	17.0 	8.0 	16.0 	11.0 	14.0 	11.0 	3.0 	3.0 	17.0 	20.0 	19.0 	16.0 	7.0 	12.0 	9.0 	1.0 	18.0 	12.0 	37.0 	10.0 	10.0 	7.0 	7.0 	4.0 	21.0 	12.0 	19.0 	13.0 	8.0 	11.0 
17.0 	16.0 	19.0 	18.0 	19.0 	18.0 	18.0 	18.0 	19.0 	19.0 	22.0 	22.0 	23.0 	23.0 	19.0 	20.0 	17.0 	18.0 	21.0 	19.0 	29.0 	18.0 	16.0 	18.0 	19.0 	20.0 	22.0 	20.0 	23.0 	21.0 	19.0 	20.0 
11.0 	15.0 	10.0 	11.0 	10.0 	12.0 	14.0 	12.0 	12.0 	12.0 	10.0 	12.0 	11.0 	12.0 	12.0 	12.0 	12.0 	11.0 	10.0 	12.0 	10.0 	11.0 	10.0 	11.0 	12.0 	12.0 	11.0 	12.0 	10.0 	12.0 	11.0 	12.0 
10.0 	11.0 	9.0 	10.0 	9.0 	11.0 	11.0 	11.0 	9.0 	9.0 	8.0 	9.0 	9.0 	10.0 	9.0 	9.0 	10.0 	10.0 	9.0 	11.0 	9.0 	10.0 	9.0 	10.0 	11.0 	11.0 	10.0 	10.0 	10.0 	11.0 	10.0 	11.0 
25.0 	29.0 	24.0 	25.0 	24.0 	27.0 	27.0 	27.0 	23.0 	23.0 	21.0 	24.0 	22.0 	25.0 	23.0 	24.0 	26.0 	26.0 	24.0 	26.0 	22.0 	24.0 	24.0 	25.0 	28.0 	27.0 	24.0 	25.0 	24.0 	27.0 	24.0 	26.0 
21.0 	26.0 	20.0 	21.0 	20.0 	23.0 	23.0 	23.0 	23.0 	23.0 	20.0 	24.0 	22.0 	24.0 	23.0 	24.0 	23.0 	22.0 	20.0 	22.0 	20.0 	20.0 	20.0 	22.0 	23.0 	24.0 	21.0 	23.0 	21.0 	24.0 	21.0 	24.0 
17.0 	22.0 	16.0 	18.0 	16.0 	18.0 	18.0 	18.0 	21.0 	22.0 	18.0 	22.0 	19.0 	22.0 	21.0 	21.0 	18.0 	18.0 	17.0 	19.0 	17.0 	18.0 	16.0 	19.0 	19.0 	21.0 	19.0 	20.0 	18.0 	21.0 	19.0 	21.0 
10.0 	8.0 	9.0 	10.0 	8.0 	9.0 	7.0 	9.0 	14.0 	14.0 	12.0 	13.0 	11.0 	13.0 	14.0 	14.0 	11.0 	12.0 	9.0 	11.0 	11.0 	11.0 	10.0 	11.0 	10.0 	12.0 	9.0 	12.0 	8.0 	9.0 	12.0 	12.0 
20.0 	19.0 	19.0 	21.0 	18.0 	20.0 	16.0 	20.0 	26.0 	26.0 	22.0 	25.0 	23.0 	25.0 	27.0 	27.0 	20.0 	22.0 	20.0 	22.0 	21.0 	21.0 	20.0 	22.0 	21.0 	25.0 	20.0 	25.0 	19.0 	22.0 	23.0 	25.0 
18.0 	19.0 	18.0 	20.0 	17.0 	19.0 	17.0 	19.0 	21.0 	32.0 	20.0 	21.0 	20.0 	22.0 	21.0 	22.0 	18.0 	19.0 	18.0 	19.0 	18.0 	19.0 	17.0 	19.0 	19.0 	21.0 	19.0 	22.0 	19.0 	21.0 	19.0 	22.0 
27.0 	28.0 	24.0 	28.0 	24.0 	28.0 	26.0 	28.0 	42.0 	63.0 	30.0 	32.0 	30.0 	33.0 	33.0 	33.0 	26.0 	26.0 	25.0 	27.0 	26.0 	27.0 	25.0 	27.0 	28.0 	32.0 	28.0 	34.0 	28.0 	32.0 	30.0 	33.0 
9.0 	9.0 	37.0 	32.0 	41.0 	20.0 	9.0 	27.0 	33.0 	71.0 	13.0 	17.0 	14.0 	13.0 	25.0 	13.0 	28.0 	69.0 	26.0 	41.0 	48.0 	33.0 	44.0 	56.0 	19.0 	41.0 	25.0 	39.0 	24.0 	21.0 	55.0 	38.0 
26.0 	31.0 	67.0 	63.0 	71.0 	58.0 	47.0 	58.0 	42.0 	87.0 	32.0 	17.0 	36.0 	23.0 	55.0 	18.0 	91.0 	105.0 	85.0 	92.0 	91.0 	93.0 	93.0 	101.0 	65.0 	45.0 	65.0 	39.0 	78.0 	47.0 	59.0 	41.0 
40.0 	55.0 	79.0 	86.0 	79.0 	75.0 	66.0 	73.0 	81.0 	74.0 	64.0 	62.0 	43.0 	52.0 	84.0 	84.0 	53.0 	68.0 	74.0 	71.0 	85.0 	80.0 	64.0 	68.0 	64.0 	86.0 	63.0 	67.0 	66.0 	59.0 	93.0 	68.0 
85.0 	76.0 	73.0 	81.0 	76.0 	77.0 	78.0 	85.0 	80.0 	79.0 	110.0 	94.0 	108.0 	97.0 	83.0 	81.0 	87.0 	99.0 	122.0 	118.0 	132.0 	121.0 	110.0 	116.0 	118.0 	137.0 	129.0 	144.0 	122.0 	136.0 	126.0 	144.0 
122.0 	102.0 	126.0 	129.0 	123.0 	123.0 	82.0 	111.0 	82.0 	88.0 	102.0 	83.0 	99.0 	96.0 	91.0 	84.0 	89.0 	93.0 	131.0 	130.0 	136.0 	131.0 	123.0 	132.0 	132.0 	143.0 	139.0 	145.0 	142.0 	145.0 	136.0 	145.0 
115.0 	120.0 	131.0 	130.0 	120.0 	131.0 	125.0 	131.0 	95.0 	78.0 	100.0 	79.0 	97.0 	79.0 	115.0 	77.0 	105.0 	111.0 	127.0 	140.0 	103.0 	133.0 	125.0 	136.0 	140.0 	145.0 	142.0 	144.0 	131.0 	146.0 	138.0 	146.0 
64.0 	119.0 	70.0 	80.0 	55.0 	92.0 	118.0 	100.0 	94.0 	66.0 	61.0 	83.0 	62.0 	68.0 	94.0 	94.0 	90.0 	88.0 	95.0 	116.0 	91.0 	94.0 	85.0 	104.0 	113.0 	88.0 	82.0 	82.0 	81.0 	103.0 	74.0 	87.0 
73.0 	40.0 	33.0 	29.0 	27.0 	43.0 	53.0 	30.0 	33.0 	26.0 	21.0 	61.0 	27.0 	98.0 	29.0 	46.0 	81.0 	77.0 	76.0 	82.0 	42.0 	98.0 	88.0 	76.0 	50.0 	42.0 	49.0 	41.0 	74.0 	48.0 	37.0 	39.0 
43.0 	27.0 	22.0 	23.0 	20.0 	33.0 	30.0 	20.0 	30.0 	28.0 	20.0 	20.0 	14.0 	27.0 	30.0 	27.0 	74.0 	36.0 	29.0 	33.0 	21.0 	66.0 	41.0 	30.0 	48.0 	40.0 	47.0 	32.0 	31.0 	34.0 	40.0 	33.0 
16.0 	25.0 	27.0 	28.0 	25.0 	28.0 	25.0 	27.0 	27.0 	18.0 	28.0 	32.0 	24.0 	26.0 	32.0 	33.0 	24.0 	24.0 	24.0 	30.0 	25.0 	27.0 	27.0 	30.0 	32.0 	24.0 	29.0 	34.0 	24.0 	32.0 	28.0 	32.0 
15.0 	15.0 	24.0 	18.0 	23.0 	19.0 	20.0 	18.0 	18.0 	15.0 	27.0 	23.0 	25.0 	26.0 	23.0 	21.0 	17.0 	12.0 	24.0 	19.0 	28.0 	21.0 	20.0 	17.0 	16.0 	14.0 	25.0 	21.0 	24.0 	21.0 	20.0 	20.0 
15.0 	18.0 	18.0 	18.0 	17.0 	17.0 	16.0 	17.0 	18.0 	18.0 	22.0 	20.0 	23.0 	20.0 	20.0 	20.0 	16.0 	16.0 	19.0 	17.0 	20.0 	17.0 	16.0 	16.0 	16.0 	18.0 	20.0 	20.0 	20.0 	18.0 	18.0 	19.0 
10.0 	12.0 	10.0 	12.0 	10.0 	11.0 	10.0 	12.0 	13.0 	13.0 	12.0 	13.0 	12.0 	13.0 	13.0 	14.0 	10.0 	11.0 	10.0 	11.0 	10.0 	11.0 	10.0 	11.0 	11.0 	13.0 	11.0 	13.0 	11.0 	13.0 	11.0 	14.0 
6.0 	6.0 	6.0 	6.0 	6.0 	6.0 	6.0 	6.0 	6.0 	6.0 	6.0 	6.0 	6.0 	6.0 	6.0 	7.0 	6.0 	6.0 	6.0 	6.0 	6.0 	6.0 	6.0 	6.0 	6.0 	6.0 	6.0 	7.0 	6.0 	6.0 	6.0 	7.0 
22.0 	25.0 	22.0 	24.0 	22.0 	24.0 	22.0 	24.0 	26.0 	26.0 	24.0 	26.0 	25.0 	27.0 	26.0 	27.0 	23.0 	23.0 	22.0 	24.0 	22.0 	23.0 	21.0 	24.0 	24.0 	26.0 	24.0 	27.0 	24.0 	26.0 	23.0 	27.0 
26.0 	30.0 	26.0 	28.0 	26.0 	27.0 	26.0 	28.0 	31.0 	31.0 	28.0 	31.0 	29.0 	31.0 	32.0 	32.0 	26.0 	27.0 	26.0 	28.0 	26.0 	27.0 	25.0 	28.0 	28.0 	31.0 	28.0 	32.0 	28.0 	31.0 	28.0 	32.0 
9.0 	6.0 	8.0 	9.0 	7.0 	8.0 	6.0 	7.0 	14.0 	14.0 	11.0 	12.0 	10.0 	12.0 	15.0 	13.0 	10.0 	11.0 	8.0 	10.0 	10.0 	10.0 	10.0 	10.0 	9.0 	11.0 	8.0 	10.0 	7.0 	8.0 	11.0 	11.0 
24.0 	22.0 	23.0 	26.0 	23.0 	24.0 	21.0 	23.0 	31.0 	32.0 	27.0 	30.0 	27.0 	30.0 	32.0 	31.0 	25.0 	27.0 	24.0 	26.0 	26.0 	26.0 	24.0 	26.0 	25.0 	29.0 	24.0 	29.0 	23.0 	26.0 	27.0 	29.0 
29.0 	31.0 	28.0 	32.0 	26.0 	32.0 	29.0 	30.0 	36.0 	36.0 	32.0 	36.0 	32.0 	36.0 	37.0 	36.0 	30.0 	32.0 	29.0 	31.0 	27.0 	32.0 	29.0 	32.0 	32.0 	35.0 	31.0 	35.0 	31.0 	34.0 	32.0 	36.0 
25.0 	27.0 	9.0 	24.0 	4.0 	23.0 	23.0 	21.0 	30.0 	25.0 	22.0 	30.0 	22.0 	32.0 	31.0 	30.0 	22.0 	26.0 	16.0 	24.0 	12.0 	22.0 	17.0 	24.0 	28.0 	32.0 	22.0 	33.0 	19.0 	28.0 	26.0 	33.0 
9.0 	14.0 	44.0 	43.0 	40.0 	21.0 	9.0 	42.0 	17.0 	50.0 	19.0 	25.0 	15.0 	18.0 	22.0 	22.0 	24.0 	63.0 	32.0 	37.0 	46.0 	20.0 	40.0 	57.0 	30.0 	51.0 	41.0 	54.0 	34.0 	31.0 	68.0 	50.0 
41.0 	26.0 	68.0 	61.0 	71.0 	63.0 	53.0 	54.0 	28.0 	67.0 	47.0 	29.0 	45.0 	31.0 	24.0 	25.0 	59.0 	85.0 	85.0 	85.0 	100.0 	86.0 	71.0 	87.0 	81.0 	56.0 	81.0 	56.0 	92.0 	65.0 	71.0 	59.0 
66.0 	55.0 	73.0 	72.0 	74.0 	63.0 	62.0 	67.0 	69.0 	74.0 	41.0 	56.0 	36.0 	55.0 	76.0 	87.0 	46.0 	67.0 	66.0 	73.0 	63.0 	80.0 	57.0 	69.0 	63.0 	81.0 	38.0 	54.0 	50.0 	53.0 	83.0 	60.0 
104.0 	64.0 	51.0 	82.0 	47.0 	72.0 	65.0 	74.0 	87.0 	83.0 	70.0 	110.0 	42.0 	99.0 	89.0 	92.0 	109.0 	119.0 	76.0 	123.0 	64.0 	124.0 	116.0 	124.0 	120.0 	143.0 	70.0 	135.0 	45.0 	119.0 	132.0 	140.0 
123.0 	85.0 	90.0 	129.0 	68.0 	126.0 	72.0 	102.0 	76.0 	87.0 	83.0 	92.0 	61.0 	99.0 	83.0 	81.0 	121.0 	127.0 	107.0 	130.0 	75.0 	142.0 	127.0 	128.0 	132.0 	144.0 	106.0 	151.0 	78.0 	150.0 	139.0 	152.0 
108.0 	99.0 	87.0 	140.0 	63.0 	143.0 	123.0 	135.0 	105.0 	112.0 	100.0 	77.0 	95.0 	79.0 	132.0 	65.0 	131.0 	132.0 	95.0 	137.0 	75.0 	139.0 	117.0 	133.0 	141.0 	144.0 	103.0 	146.0 	79.0 	150.0 	134.0 	148.0 
51.0 	119.0 	70.0 	90.0 	61.0 	87.0 	122.0 	111.0 	100.0 	109.0 	49.0 	83.0 	58.0 	70.0 	80.0 	118.0 	88.0 	95.0 	90.0 	113.0 	90.0 	91.0 	81.0 	107.0 	105.0 	101.0 	69.0 	100.0 	83.0 	110.0 	78.0 	102.0 
62.0 	79.0 	46.0 	45.0 	41.0 	59.0 	69.0 	45.0 	24.0 	17.0 	21.0 	49.0 	20.0 	90.0 	22.0 	38.0 	95.0 	68.0 	75.0 	81.0 	45.0 	93.0 	100.0 	66.0 	71.0 	58.0 	79.0 	53.0 	90.0 	68.0 	62.0 	51.0 
38.0 	30.0 	29.0 	21.0 	21.0 	47.0 	56.0 	13.0 	25.0 	28.0 	23.0 	16.0 	18.0 	19.0 	28.0 	19.0 	76.0 	19.0 	37.0 	30.0 	22.0 	74.0 	50.0 	17.0 	58.0 	31.0 	67.0 	20.0 	46.0 	34.0 	62.0 	23.0 
16.0 	22.0 	19.0 	23.0 	19.0 	25.0 	24.0 	22.0 	32.0 	28.0 	19.0 	25.0 	19.0 	23.0 	29.0 	25.0 	23.0 	29.0 	17.0 	23.0 	18.0 	26.0 	19.0 	26.0 	28.0 	30.0 	23.0 	27.0 	22.0 	26.0 	28.0 	29.0 
23.0 	23.0 	21.0 	25.0 	21.0 	24.0 	26.0 	22.0 	32.0 	28.0 	23.0 	25.0 	22.0 	25.0 	30.0 	27.0 	26.0 	22.0 	21.0 	24.0 	19.0 	24.0 	24.0 	23.0 	29.0 	25.0 	25.0 	26.0 	21.0 	27.0 	27.0 	27.0 
24.0 	22.0 	21.0 	24.0 	22.0 	24.0 	25.0 	25.0 	29.0 	27.0 	23.0 	29.0 	22.0 	31.0 	31.0 	29.0 	24.0 	23.0 	21.0 	26.0 	22.0 	25.0 	24.0 	26.0 	27.0 	27.0 	25.0 	29.0 	23.0 	29.0 	26.0 	30.0 
15.0 	17.0 	15.0 	16.0 	15.0 	16.0 	16.0 	15.0 	17.0 	17.0 	18.0 	18.0 	18.0 	20.0 	18.0 	18.0 	15.0 	15.0 	15.0 	16.0 	16.0 	15.0 	15.0 	16.0 	17.0 	18.0 	17.0 	18.0 	17.0 	18.0 	16.0 	18.0 
3.0 	3.0 	3.0 	3.0 	3.0 	3.0 	3.0 	3.0 	3.0 	3.0 	3.0 	3.0 	3.0 	3.0 	4.0 	3.0 	2.0 	3.0 	2.0 	3.0 	2.0 	3.0 	2.0 	3.0 	3.0 	3.0 	3.0 	3.0 	3.0 	3.0 	3.0 	3.0 
33.0 	36.0 	34.0 	36.0 	34.0 	36.0 	34.0 	35.0 	39.0 	40.0 	36.0 	39.0 	37.0 	40.0 	40.0 	40.0 	34.0 	36.0 	34.0 	35.0 	34.0 	36.0 	33.0 	36.0 	36.0 	39.0 	36.0 	39.0 	36.0 	39.0 	35.0 	40.0 
38.0 	41.0 	39.0 	42.0 	39.0 	41.0 	39.0 	40.0 	45.0 	45.0 	42.0 	45.0 	42.0 	46.0 	46.0 	45.0 	39.0 	40.0 	39.0 	41.0 	39.0 	41.0 	38.0 	41.0 	41.0 	45.0 	41.0 	45.0 	41.0 	44.0 	41.0 	46.0 
12.0 	8.0 	10.0 	12.0 	10.0 	11.0 	8.0 	9.0 	22.0 	23.0 	15.0 	17.0 	13.0 	16.0 	22.0 	19.0 	14.0 	16.0 	11.0 	13.0 	14.0 	13.0 	13.0 	15.0 	11.0 	15.0 	10.0 	13.0 	9.0 	11.0 	14.0 	15.0 
21.0 	18.0 	19.0 	22.0 	20.0 	22.0 	18.0 	20.0 	28.0 	29.0 	24.0 	27.0 	23.0 	27.0 	28.0 	27.0 	22.0 	23.0 	21.0 	23.0 	22.0 	23.0 	21.0 	23.0 	22.0 	25.0 	21.0 	25.0 	20.0 	23.0 	23.0 	26.0 
23.0 	24.0 	18.0 	24.0 	16.0 	25.0 	22.0 	24.0 	30.0 	22.0 	22.0 	27.0 	22.0 	27.0 	28.0 	28.0 	23.0 	25.0 	19.0 	25.0 	16.0 	24.0 	21.0 	25.0 	26.0 	27.0 	20.0 	26.0 	20.0 	27.0 	23.0 	28.0 
17.0 	23.0 	4.0 	17.0 	2.0 	13.0 	14.0 	11.0 	17.0 	15.0 	12.0 	23.0 	13.0 	25.0 	16.0 	20.0 	12.0 	20.0 	10.0 	17.0 	11.0 	14.0 	10.0 	20.0 	19.0 	32.0 	18.0 	39.0 	15.0 	21.0 	19.0 	39.0 
9.0 	5.0 	45.0 	50.0 	45.0 	14.0 	7.0 	37.0 	17.0 	54.0 	23.0 	33.0 	19.0 	17.0 	27.0 	34.0 	27.0 	50.0 	39.0 	35.0 	46.0 	14.0 	45.0 	60.0 	37.0 	66.0 	49.0 	73.0 	40.0 	41.0 	81.0 	70.0 
51.0 	28.0 	66.0 	65.0 	68.0 	64.0 	54.0 	52.0 	34.0 	56.0 	54.0 	50.0 	49.0 	46.0 	25.0 	40.0 	49.0 	59.0 	100.0 	94.0 	96.0 	89.0 	72.0 	91.0 	92.0 	66.0 	88.0 	61.0 	85.0 	76.0 	70.0 	68.0 
78.0 	56.0 	74.0 	68.0 	73.0 	70.0 	63.0 	71.0 	66.0 	74.0 	35.0 	26.0 	42.0 	52.0 	76.0 	70.0 	37.0 	50.0 	69.0 	56.0 	60.0 	74.0 	38.0 	45.0 	42.0 	48.0 	31.0 	25.0 	49.0 	36.0 	35.0 	27.0 
51.0 	58.0 	23.0 	52.0 	28.0 	51.0 	60.0 	60.0 	96.0 	85.0 	11.0 	81.0 	18.0 	46.0 	86.0 	92.0 	70.0 	118.0 	13.0 	63.0 	13.0 	49.0 	41.0 	78.0 	91.0 	121.0 	13.0 	44.0 	16.0 	33.0 	84.0 	55.0 
84.0 	70.0 	9.0 	97.0 	9.0 	85.0 	39.0 	75.0 	73.0 	75.0 	19.0 	88.0 	8.0 	77.0 	67.0 	81.0 	104.0 	132.0 	13.0 	117.0 	15.0 	84.0 	64.0 	126.0 	130.0 	146.0 	12.0 	86.0 	12.0 	74.0 	104.0 	102.0 
79.0 	103.0 	24.0 	102.0 	27.0 	100.0 	75.0 	119.0 	77.0 	107.0 	96.0 	83.0 	77.0 	89.0 	65.0 	55.0 	99.0 	133.0 	29.0 	125.0 	54.0 	80.0 	63.0 	128.0 	128.0 	142.0 	28.0 	93.0 	29.0 	88.0 	89.0 	106.0 
35.0 	130.0 	63.0 	76.0 	65.0 	51.0 	71.0 	100.0 	37.0 	70.0 	62.0 	56.0 	74.0 	60.0 	25.0 	56.0 	78.0 	93.0 	74.0 	102.0 	81.0 	49.0 	78.0 	106.0 	86.0 	111.0 	51.0 	95.0 	72.0 	90.0 	85.0 	99.0 
46.0 	94.0 	48.0 	52.0 	53.0 	53.0 	77.0 	52.0 	28.0 	13.0 	11.0 	23.0 	31.0 	23.0 	23.0 	20.0 	94.0 	60.0 	67.0 	72.0 	51.0 	81.0 	104.0 	57.0 	91.0 	74.0 	86.0 	56.0 	83.0 	73.0 	83.0 	57.0 
43.0 	41.0 	39.0 	28.0 	24.0 	66.0 	81.0 	15.0 	22.0 	20.0 	12.0 	20.0 	7.0 	22.0 	23.0 	19.0 	68.0 	18.0 	46.0 	34.0 	27.0 	79.0 	66.0 	15.0 	82.0 	30.0 	77.0 	21.0 	51.0 	43.0 	84.0 	25.0 
16.0 	16.0 	14.0 	17.0 	12.0 	35.0 	30.0 	18.0 	21.0 	18.0 	15.0 	18.0 	13.0 	20.0 	19.0 	16.0 	18.0 	21.0 	18.0 	16.0 	11.0 	37.0 	17.0 	18.0 	24.0 	22.0 	29.0 	19.0 	31.0 	21.0 	22.0 	20.0 
18.0 	18.0 	13.0 	21.0 	11.0 	21.0 	20.0 	20.0 	21.0 	24.0 	13.0 	20.0 	13.0 	19.0 	16.0 	20.0 	20.0 	19.0 	12.0 	18.0 	11.0 	19.0 	15.0 	19.0 	23.0 	22.0 	13.0 	21.0 	13.0 	21.0 	17.0 	22.0 
17.0 	22.0 	16.0 	19.0 	17.0 	20.0 	16.0 	21.0 	24.0 	23.0 	14.0 	20.0 	13.0 	22.0 	20.0 	20.0 	15.0 	23.0 	14.0 	20.0 	18.0 	19.0 	13.0 	21.0 	22.0 	25.0 	13.0 	21.0 	14.0 	23.0 	16.0 	22.0 
17.0 	17.0 	14.0 	18.0 	13.0 	18.0 	18.0 	17.0 	20.0 	19.0 	18.0 	20.0 	18.0 	22.0 	20.0 	20.0 	18.0 	16.0 	15.0 	18.0 	13.0 	18.0 	17.0 	17.0 	21.0 	18.0 	19.0 	20.0 	18.0 	21.0 	18.0 	20.0 
9.0 	10.0 	10.0 	10.0 	10.0 	11.0 	10.0 	10.0 	11.0 	11.0 	11.0 	12.0 	11.0 	13.0 	11.0 	11.0 	11.0 	10.0 	10.0 	11.0 	10.0 	10.0 	10.0 	10.0 	11.0 	11.0 	11.0 	11.0 	11.0 	12.0 	10.0 	12.0 
31.0 	32.0 	31.0 	33.0 	31.0 	34.0 	31.0 	32.0 	37.0 	37.0 	34.0 	37.0 	34.0 	38.0 	36.0 	37.0 	32.0 	32.0 	32.0 	33.0 	32.0 	33.0 	31.0 	33.0 	33.0 	36.0 	33.0 	36.0 	33.0 	37.0 	33.0 	37.0 
37.0 	38.0 	37.0 	39.0 	37.0 	40.0 	37.0 	39.0 	43.0 	44.0 	40.0 	44.0 	40.0 	44.0 	43.0 	43.0 	37.0 	38.0 	37.0 	39.0 	38.0 	39.0 	37.0 	39.0 	39.0 	42.0 	39.0 	43.0 	39.0 	44.0 	39.0 	44.0 
7.0 	3.0 	6.0 	8.0 	7.0 	7.0 	4.0 	6.0 	16.0 	16.0 	10.0 	11.0 	8.0 	11.0 	15.0 	13.0 	8.0 	11.0 	6.0 	9.0 	8.0 	9.0 	8.0 	10.0 	7.0 	10.0 	7.0 	9.0 	5.0 	7.0 	9.0 	9.0 
21.0 	17.0 	17.0 	20.0 	16.0 	20.0 	17.0 	19.0 	28.0 	26.0 	23.0 	25.0 	22.0 	25.0 	27.0 	25.0 	21.0 	22.0 	18.0 	21.0 	17.0 	21.0 	19.0 	22.0 	22.0 	23.0 	20.0 	22.0 	18.0 	21.0 	22.0 	23.0 
20.0 	20.0 	10.0 	17.0 	8.0 	17.0 	18.0 	17.0 	26.0 	13.0 	16.0 	21.0 	17.0 	21.0 	23.0 	21.0 	19.0 	20.0 	12.0 	18.0 	9.0 	17.0 	14.0 	18.0 	23.0 	24.0 	14.0 	21.0 	14.0 	19.0 	19.0 	25.0 
11.0 	15.0 	5.0 	14.0 	3.0 	7.0 	8.0 	8.0 	15.0 	15.0 	8.0 	17.0 	8.0 	14.0 	14.0 	15.0 	11.0 	22.0 	7.0 	10.0 	10.0 	9.0 	13.0 	17.0 	13.0 	43.0 	22.0 	47.0 	15.0 	12.0 	25.0 	43.0 
13.0 	1.0 	46.0 	46.0 	48.0 	15.0 	13.0 	30.0 	31.0 	61.0 	26.0 	39.0 	21.0 	15.0 	41.0 	45.0 	45.0 	55.0 	34.0 	43.0 	36.0 	15.0 	57.0 	65.0 	51.0 	80.0 	45.0 	80.0 	37.0 	44.0 	87.0 	78.0 
48.0 	31.0 	62.0 	65.0 	66.0 	66.0 	52.0 	50.0 	36.0 	59.0 	54.0 	60.0 	49.0 	54.0 	26.0 	52.0 	61.0 	71.0 	83.0 	101.0 	72.0 	89.0 	95.0 	107.0 	101.0 	68.0 	76.0 	53.0 	66.0 	72.0 	77.0 	64.0 
77.0 	49.0 	78.0 	76.0 	74.0 	77.0 	64.0 	77.0 	55.0 	69.0 	39.0 	25.0 	43.0 	56.0 	66.0 	50.0 	47.0 	28.0 	60.0 	55.0 	53.0 	67.0 	51.0 	41.0 	34.0 	20.0 	31.0 	21.0 	41.0 	32.0 	18.0 	22.0 
33.0 	62.0 	33.0 	22.0 	32.0 	35.0 	61.0 	46.0 	98.0 	83.0 	20.0 	50.0 	24.0 	44.0 	82.0 	50.0 	12.0 	38.0 	20.0 	13.0 	20.0 	25.0 	10.0 	13.0 	17.0 	27.0 	20.0 	17.0 	21.0 	18.0 	12.0 	15.0 
10.0 	50.0 	16.0 	10.0 	17.0 	9.0 	8.0 	9.0 	77.0 	66.0 	13.0 	58.0 	13.0 	50.0 	57.0 	83.0 	13.0 	82.0 	17.0 	20.0 	20.0 	13.0 	7.0 	27.0 	34.0 	58.0 	19.0 	11.0 	20.0 	14.0 	12.0 	13.0 
9.0 	54.0 	23.0 	18.0 	27.0 	13.0 	7.0 	21.0 	39.0 	38.0 	84.0 	89.0 	54.0 	89.0 	12.0 	43.0 	20.0 	85.0 	25.0 	24.0 	43.0 	12.0 	31.0 	40.0 	36.0 	58.0 	31.0 	24.0 	28.0 	12.0 	36.0 	21.0 
25.0 	74.0 	59.0 	56.0 	59.0 	23.0 	31.0 	68.0 	7.0 	28.0 	78.0 	67.0 	76.0 	61.0 	9.0 	25.0 	78.0 	92.0 	58.0 	68.0 	66.0 	27.0 	66.0 	94.0 	74.0 	90.0 	42.0 	81.0 	55.0 	61.0 	86.0 	80.0 
32.0 	86.0 	39.0 	62.0 	48.0 	42.0 	72.0 	61.0 	26.0 	25.0 	15.0 	26.0 	45.0 	19.0 	13.0 	29.0 	87.0 	59.0 	54.0 	76.0 	50.0 	67.0 	102.0 	61.0 	99.0 	78.0 	71.0 	61.0 	66.0 	72.0 	83.0 	64.0 
45.0 	47.0 	40.0 	38.0 	27.0 	75.0 	89.0 	23.0 	15.0 	17.0 	8.0 	21.0 	5.0 	23.0 	19.0 	22.0 	73.0 	23.0 	42.0 	48.0 	27.0 	87.0 	79.0 	18.0 	92.0 	36.0 	74.0 	23.0 	43.0 	51.0 	91.0 	30.0 
17.0 	17.0 	14.0 	12.0 	11.0 	49.0 	43.0 	16.0 	15.0 	15.0 	13.0 	13.0 	11.0 	17.0 	11.0 	12.0 	16.0 	15.0 	21.0 	14.0 	10.0 	54.0 	23.0 	14.0 	18.0 	16.0 	41.0 	14.0 	44.0 	18.0 	21.0 	14.0 
11.0 	16.0 	8.0 	12.0 	9.0 	17.0 	10.0 	18.0 	11.0 	15.0 	11.0 	15.0 	9.0 	14.0 	9.0 	14.0 	8.0 	17.0 	7.0 	12.0 	8.0 	16.0 	6.0 	16.0 	16.0 	19.0 	10.0 	15.0 	11.0 	15.0 	7.0 	15.0 
7.0 	20.0 	11.0 	14.0 	8.0 	15.0 	8.0 	15.0 	14.0 	20.0 	12.0 	15.0 	13.0 	15.0 	13.0 	17.0 	8.0 	15.0 	11.0 	13.0 	8.0 	15.0 	9.0 	13.0 	9.0 	18.0 	11.0 	15.0 	12.0 	15.0 	11.0 	15.0 
15.0 	17.0 	8.0 	10.0 	7.0 	13.0 	16.0 	16.0 	18.0 	12.0 	12.0 	18.0 	11.0 	21.0 	13.0 	16.0 	16.0 	15.0 	9.0 	19.0 	7.0 	15.0 	12.0 	19.0 	19.0 	18.0 	14.0 	19.0 	12.0 	21.0 	14.0 	19.0 
12.0 	13.0 	11.0 	11.0 	11.0 	11.0 	12.0 	12.0 	13.0 	12.0 	13.0 	13.0 	11.0 	14.0 	12.0 	12.0 	12.0 	11.0 	12.0 	13.0 	11.0 	12.0 	11.0 	13.0 	16.0 	12.0 	12.0 	13.0 	12.0 	14.0 	12.0 	13.0 
19.0 	19.0 	18.0 	20.0 	18.0 	20.0 	18.0 	20.0 	23.0 	23.0 	20.0 	22.0 	20.0 	23.0 	22.0 	22.0 	18.0 	20.0 	18.0 	20.0 	19.0 	20.0 	18.0 	20.0 	19.0 	21.0 	20.0 	22.0 	20.0 	23.0 	20.0 	22.0 
35.0 	36.0 	34.0 	37.0 	34.0 	37.0 	34.0 	36.0 	41.0 	42.0 	38.0 	41.0 	37.0 	42.0 	40.0 	40.0 	35.0 	37.0 	35.0 	37.0 	35.0 	37.0 	34.0 	37.0 	36.0 	39.0 	38.0 	40.0 	37.0 	41.0 	37.0 	40.0 
