0.96875
0.98438
0.98438
0.99219
0.99219
0.97656
0.97656
0.99219
0.98438
0.98438
0.97656
0.98438
0.98438
0.98438
0.98438
0.99219
0.96875
0.96875
0.99219
0.97656
0.96875
0.98438
0.99219
0.95312
0.99219
0.98438
0.98438
0.98438
0.99219
0.98438
0.96094
0.99219
0.97656
0.98438
0.99219
0.97656
0.96875
0.97656
0.99219
1.00000
0.98438
0.97656
0.97656
0.99219
0.98438
1.00000
0.97656
0.99219
0.98438
0.96875
0.99219
0.99219
0.99219
0.98438
0.99219
0.98438
1.00000
0.97656
0.97656
0.99219
0.97656
0.99219
1.00000
0.98438
0.98438
0.96875
0.97656
0.99219
0.97656
0.96875
0.97656
0.97656
0.98438
0.97656
0.98438
0.98438
0.97656
0.99219
0.99219
0.96875
0.97656
0.97656
0.97656
0.98438
0.98438
0.97656
0.99219
0.97656
1.00000
0.99219
0.96875
1.00000
0.99219
0.98438
0.98438
0.99219
1.00000
0.98438
0.96094
0.97656
