0.98438
0.96875
0.96875
0.97656
0.96094
0.98438
0.98438
0.98438
0.98438
0.97656
0.97656
0.98438
0.98438
0.99219
0.98438
0.98438
0.98438
0.98438
0.99219
0.97656
0.95312
0.97656
0.98438
0.99219
0.98438
0.96875
0.96875
0.97656
0.97656
0.98438
0.96875
0.97656
0.98438
0.98438
0.96875
0.97656
0.97656
0.98438
0.96094
0.96875
0.97656
0.97656
0.99219
0.98438
0.99219
0.92969
0.98438
0.93750
0.96875
0.97656
0.98438
0.99219
0.97656
0.99219
1.00000
0.99219
0.98438
0.96875
0.98438
0.96875
0.97656
0.99219
0.98438
0.98438
1.00000
0.99219
0.97656
1.00000
0.96875
0.98438
0.95312
0.98438
0.99219
0.95312
0.97656
0.96875
0.96875
0.98438
0.96094
0.97656
0.95312
0.98438
0.96875
0.99219
0.99219
0.97656
0.97656
0.96875
0.96094
0.95312
0.97656
0.97656
0.97656
0.96094
0.96094
0.99219
0.98438
0.99219
1.00000
0.96094
