0.94531
0.96875
0.92188
0.95312
0.94531
0.90625
0.98438
0.93750
0.96875
0.93750
0.92969
0.96875
0.96875
0.94531
0.96094
0.92969
0.94531
0.93750
0.93750
0.98438
0.94531
0.90625
0.92969
0.93750
0.96094
0.92969
0.92188
0.95312
0.92969
0.97656
0.95312
0.95312
0.92188
0.95312
0.96875
0.93750
0.92969
0.95312
0.92188
0.95312
0.91406
0.93750
0.94531
0.92188
0.93750
0.90625
0.96875
0.96875
0.93750
0.92969
0.89844
0.97656
0.92969
0.97656
0.96875
0.94531
0.92969
0.95312
0.95312
0.94531
0.94531
0.97656
0.95312
0.94531
0.89844
0.96875
0.92188
0.96094
0.90625
0.96094
0.94531
0.96094
0.95312
0.92188
0.95312
0.91406
0.95312
0.91406
0.88281
0.90625
0.96875
0.93750
0.92188
0.92969
0.93750
0.96094
0.96875
0.93750
0.93750
0.95312
0.97656
0.97656
0.96094
0.95312
0.93750
0.96875
0.94531
0.91406
0.94531
0.94531
