61 0 0 0 0 0 0 0 0 0 0 0 0 0 0 0 0 0 1 0
0 49 0 16 0 0 0 0 0 0 0 0 0 0 0 0 0 0 0 0
0 0 61 0 0 0 0 0 0 0 0 0 0 0 0 8 8 1 0 0
0 0 0 74 0 0 0 0 0 0 0 0 0 0 0 0 0 0 0 0
0 0 0 2 57 0 0 0 0 0 0 0 0 0 0 0 0 0 0 0
0 0 0 0 0 60 0 0 0 0 0 0 0 0 0 7 1 0 0 0
0 0 0 0 0 0 61 1 0 0 0 0 0 0 0 0 0 0 0 0
0 0 0 0 0 0 0 62 0 0 0 0 0 0 0 0 0 1 0 0
0 0 0 0 0 0 0 4 72 0 0 0 0 0 0 0 0 0 0 0
0 1 0 0 0 0 0 2 0 56 0 0 0 1 0 0 0 0 0 0
0 0 0 0 0 0 0 1 3 0 51 0 0 0 0 0 0 0 0 0
0 0 0 0 0 0 0 0 1 0 0 61 0 0 0 0 1 0 0 0
0 0 0 0 0 0 0 2 0 0 0 3 55 0 0 4 0 0 0 0
0 0 0 0 3 0 0 4 0 0 0 0 0 59 0 0 0 0 0 0
0 0 0 0 0 0 0 0 0 0 0 0 0 0 55 0 0 0 0 0
0 0 0 0 0 0 0 0 0 0 0 0 1 0 0 57 0 0 0 0
0 0 0 0 0 0 0 0 0 0 0 1 0 0 0 0 61 0 0 0
0 0 0 0 0 0 0 0 0 0 0 0 0 0 0 0 0 67 0 0
0 0 0 0 0 0 0 3 1 0 0 0 0 0 0 18 0 0 41 0
0 0 0 0 0 0 0 4 0 0 0 0 0 1 0 0 0 0 0 55
